Command line as entered for process 13105: qks -no_compute_bounds -d 3-controller-synthesis/input -dk 3-controller-synthesis/output -no_gen_weakctrl -on_the_fly -v 3 
*** This is QKS version 4.1
*** This version of QKS is linked to a modified version of the GLPK MILP solver version 4.44.
*** See http://www.gnu.org/software/glpk/
*** Copyright 2000, 2001, 2002, 2003, 2004, 2005, 2006, 2007, 2008Andrew Makhorin, Department for Applied Informatics, Moscow Aviation Institute, Moscow, Russia. All rights reserved.
*** This version of QKS is linked to the CUDD package version 2.4.2.
*** Copyright (c) 1995-2004, Regents of the University of Colorado

Current options:
	use model.m as input file in LFOLSM format 
	use model.elp as input file in ELP format 
	use 3-controller-synthesis/input as input directory 
	use 3-controller-synthesis/output as output directory 
	use /tmp/ as directory for temporary files 
	use ctrabs.blif as base file name for control abstraction blif files 
	use 1 processes 
	use 0 as hashing for cells distribution among processes 
	use ctrl.c as strong controller C file name 
	use ctrl.weak.c as weak controller C file name 
	use ctrl.macro.c as non-mgo strong controller C file name 
	use ctrl.macro.weak.c as weak non-mgo controller C file name 
	use ctrl.blif as strong controller BLIF file name 
	use ctrl.weak.blif as weak controller BLIF file name 
	use ctrl.macro.blif as strong non-mgo controller BLIF file name 
	use ctrl.macro.weak.blif as weak non-mgo controller BLIF file name 
	use ctrl.h as controller header file name 
	use ctrl_reg as controllable region files prefix 
	use 4 as algorithm to compute the non-mgo controller, being 4 an integer between 0 and 6 (0 is ignored, 4 is EMSOFT 2012) 
	use (empty string) to define actions defaults for controller. String (empty string) must be of type var1:val1:...varn:valn 
	use 2 as the PHI parameter 
	use 0.5 as the HSV_S parameter in controllable region pictures generation 
	use 0.95 as the HSV_V parameter in controllable region pictures generation 
	use 0 as the EPSILON parameter 
	use 0.1 to decide GLPK solution quality as for PB test 
	use 0.1 to decide GLPK solution quality as for PE test 
	use (empty string) as quantization for X variables. String (empty string) must be of type var1:quant1:...:varn:quantn. If given, overrides observability. Default is empty 
	exclude vars in (empty string) from printed controllable region 
	print controllable region for 0 levels 
	print controllable region every 0 steps 
	print non-mgo controllable region for 0 levels 
	print non-mgo controllable region every 0 steps 
	use 3 as verbosity level 
	use 2147483648 as the total memory limit in bytes which may be used, excluding calls to MILP solver 
	use 0 as debug level 
	infinitely cycle when arrived at (empty string) 
	use 5 for internal use only 
	do not stop before computing control or output abstraction
	do not only translate BLIF files representing controllers in C code
	do not read controller from blif
	synthesize controllers with the on-the-fly algorithm
	do not prefer action 0 in generating control software
	do not explicitly compute bounds
	generate pictures for controllable region
	do not use alternative algorithms (to be specified with -ctrl_algo) to compute non-mgo controllers
	do not compute bounds with ICSEA 2012 algorithm
	do not perform full for k in ICSEA 2012 algorithm
	do not check actions safety with mjollnir
	do not quit after checking actions safety with mjollnir, if mjollnir check is required
	do not read init region from blif file
	do not read goal region from blif file
	do not read control abstraction from blif file
	write control abstraction in blif files
	enable interleaved ordering for variables bits in controller
	dump projected strong controller
	use adherent method when translating to C code
	use LFOLSM input (alternative is to provide already preprocessed files)
	allow usage of (var_bool -> P) and (!var_bool -> P) in LFOLSM input
	generate AD/DA conversion functions on C controller
	compute whole mgo, ignoring init
	do not compute underapproximation of the goal
	compute goal abstraction as a rectangular region
	compute init abstraction as a rectangular region
	generate the strong controller
	do not generate the weak controller
	dump the controller as a C function
	dump the weak controller as a C function
	generate GNUPLOT input files to visualize the controller as a picture
	dump the controller as a blif module
	perform gradient based self-loops elimination
	perform self-loops elimination by checking a fixed number of steps
	set glpsol flag 1
	set glpsol flag 2

************ Input LFOLSM is: ************
Statevars
  x1: [-3.454, 3.454];
  x2: [-4, 4];

Inputvars
  u: -1 .. 1;

Outputvars
  y1: 0 .. 511;
  y2: 0 .. 511;

Trans
  exists
    x2_8: [-4.1386, 4.1386],
    x1_8: [-3.14, 3.14],
    q_8: -1 .. 1,
    above_8: 0 .. 1,
    x1_sin0_k_8: -1 .. 1,
    x1_sin0_8: [-3.14, 3.14],
    sin0_8: [-1.04035, 1.04035],
    x1_7: [-3.14, 3.14],
    x2_7: [-4.1232, 4.1232],
    q_7: -1 .. 1,
    above_7: 0 .. 1,
    x1_sin0_k_7: -1 .. 1,
    x1_sin0_7: [-3.14, 3.14],
    sin0_7: [-1.04035, 1.04035],
    x2_6: [-4.1078, 4.1078],
    x1_6: [-3.14, 3.14],
    q_6: -1 .. 1,
    above_6: 0 .. 1,
    x1_sin0_k_6: -1 .. 1,
    x1_sin0_6: [-3.14, 3.14],
    sin0_6: [-1.04035, 1.04035],
    x1_5: [-3.14, 3.14],
    x2_5: [-4.0924, 4.0924],
    q_5: -1 .. 1,
    above_5: 0 .. 1,
    x1_sin0_k_5: -1 .. 1,
    x1_sin0_5: [-3.14, 3.14],
    sin0_5: [-1.04035, 1.04035],
    x2_4: [-4.077, 4.077],
    x1_4: [-3.14, 3.14],
    q_4: -1 .. 1,
    above_4: 0 .. 1,
    x1_sin0_k_4: -1 .. 1,
    x1_sin0_4: [-3.14, 3.14],
    sin0_4: [-1.04035, 1.04035],
    x1_3: [-3.14, 3.14],
    x2_3: [-4.0616, 4.0616],
    q_3: -1 .. 1,
    above_3: 0 .. 1,
    x1_sin0_k_3: -1 .. 1,
    x1_sin0_3: [-3.14, 3.14],
    sin0_3: [-1.04035, 1.04035],
    x2_2: [-4.0462, 4.0462],
    x1_2: [-3.14, 3.14],
    q_2: -1 .. 1,
    above_2: 0 .. 1,
    x1_sin0_k_2: -1 .. 1,
    x1_sin0_2: [-3.14, 3.14],
    sin0_2: [-1.04035, 1.04035],
    x1_1: [-3.14, 3.14],
    x2_1: [-4.0308, 4.0308],
    q_1: -1 .. 1,
    above_1: 0 .. 1,
    x1_sin0_k_1: -1 .. 1,
    x1_sin0_1: [-3.14, 3.14],
    sin0_1: [-1.04035, 1.04035],
    x2_0: [-4.0154, 4.0154],
    x1_0: [-3.14, 3.14],
    q_0: -1 .. 1,
    above_0: 0 .. 1,
    x1_sin0_k_0: -1 .. 1,
    x1_sin0_0: [-3.14, 3.14],
    sin0_0: [-1.04035, 1.04035],
    q: -1 .. 1,
    above: 0 .. 1,
    x1_sin0_k: -1 .. 1,
    x1_sin0: [-3.14, 3.14],
    sin0: [-1.04035, 1.04035]
  {
    (x1' = x1_8 + 2 * 3.14 * q_8 + 0.01 * x2_8) &
    (
      (above_8 = 1) ->
      (
        (x1_8 >= -1.57) &
        (x1_8 <= 1.57)
      )
    ) &
    (
      (above_8 = 1) ->
      (x2' = x2_8 + 0.01 * ((9.8 / 9.8) * sin0_8 + (1 / (0.0104123 * 9.8 * 9.8)) * 0.5 * u))
    ) &
    (
      (above_8 = 0) ->
      (
        (x1_8 <= -1.57) |
        (x1_8 >= 1.57)
      )
    ) &
    (
      (above_8 = 0) ->
      (x2' = x2_8 + 0.01 * (((9.8 / 9.8) * sin0_8) - ((0.01 / (0.0104123 * 9.8 * 9.8)) * x2_8) + (1 / (0.0104123 * 9.8 * 9.8)) * 0.5 * u))
    ) &
    (-3.14 <= x1_8) &
    (x1_8 <= 3.14) &
    (-3.14 <= x1') &
    (x1' <= 3.14) &
    (
      (
        (x1_sin0_8 >= -3.14) &
        (x1_sin0_8 <= 0) &
        (sin0_8 >= 0.000507214 * x1_sin0_8 + -1.03876) &
        (sin0_8 <= 0.000507214 * x1_sin0_8 + 0.0397468)
      ) |
      (
        (x1_sin0_8 >= 0) &
        (x1_sin0_8 <= 3.14) &
        (sin0_8 >= 0.000507214 * x1_sin0_8 + -0.0397468) &
        (sin0_8 <= 0.000507214 * x1_sin0_8 + 1.03876)
      )
    ) &
    (x1_8 = 6.28 * x1_sin0_k_8 + x1_sin0_8) &
    (x1_8 = x1_7 + 2 * 3.14 * q_7 + 0.01 * x2_7) &
    (
      (above_7 = 1) ->
      (
        (x1_7 >= -1.57) &
        (x1_7 <= 1.57)
      )
    ) &
    (
      (above_7 = 1) ->
      (x2_8 = x2_7 + 0.01 * ((9.8 / 9.8) * sin0_7 + (1 / (0.0104123 * 9.8 * 9.8)) * 0.5 * u))
    ) &
    (
      (above_7 = 0) ->
      (
        (x1_7 <= -1.57) |
        (x1_7 >= 1.57)
      )
    ) &
    (
      (above_7 = 0) ->
      (x2_8 = x2_7 + 0.01 * (((9.8 / 9.8) * sin0_7) - ((0.01 / (0.0104123 * 9.8 * 9.8)) * x2_7) + (1 / (0.0104123 * 9.8 * 9.8)) * 0.5 * u))
    ) &
    (-3.14 <= x1_7) &
    (x1_7 <= 3.14) &
    (-3.14 <= x1_8) &
    (x1_8 <= 3.14) &
    (
      (
        (x1_sin0_7 >= -3.14) &
        (x1_sin0_7 <= 0) &
        (sin0_7 >= 0.000507214 * x1_sin0_7 + -1.03876) &
        (sin0_7 <= 0.000507214 * x1_sin0_7 + 0.0397468)
      ) |
      (
        (x1_sin0_7 >= 0) &
        (x1_sin0_7 <= 3.14) &
        (sin0_7 >= 0.000507214 * x1_sin0_7 + -0.0397468) &
        (sin0_7 <= 0.000507214 * x1_sin0_7 + 1.03876)
      )
    ) &
    (x1_7 = 6.28 * x1_sin0_k_7 + x1_sin0_7) &
    (x1_7 = x1_6 + 2 * 3.14 * q_6 + 0.01 * x2_6) &
    (
      (above_6 = 1) ->
      (
        (x1_6 >= -1.57) &
        (x1_6 <= 1.57)
      )
    ) &
    (
      (above_6 = 1) ->
      (x2_7 = x2_6 + 0.01 * ((9.8 / 9.8) * sin0_6 + (1 / (0.0104123 * 9.8 * 9.8)) * 0.5 * u))
    ) &
    (
      (above_6 = 0) ->
      (
        (x1_6 <= -1.57) |
        (x1_6 >= 1.57)
      )
    ) &
    (
      (above_6 = 0) ->
      (x2_7 = x2_6 + 0.01 * (((9.8 / 9.8) * sin0_6) - ((0.01 / (0.0104123 * 9.8 * 9.8)) * x2_6) + (1 / (0.0104123 * 9.8 * 9.8)) * 0.5 * u))
    ) &
    (-3.14 <= x1_6) &
    (x1_6 <= 3.14) &
    (-3.14 <= x1_7) &
    (x1_7 <= 3.14) &
    (
      (
        (x1_sin0_6 >= -3.14) &
        (x1_sin0_6 <= 0) &
        (sin0_6 >= 0.000507214 * x1_sin0_6 + -1.03876) &
        (sin0_6 <= 0.000507214 * x1_sin0_6 + 0.0397468)
      ) |
      (
        (x1_sin0_6 >= 0) &
        (x1_sin0_6 <= 3.14) &
        (sin0_6 >= 0.000507214 * x1_sin0_6 + -0.0397468) &
        (sin0_6 <= 0.000507214 * x1_sin0_6 + 1.03876)
      )
    ) &
    (x1_6 = 6.28 * x1_sin0_k_6 + x1_sin0_6) &
    (x1_6 = x1_5 + 2 * 3.14 * q_5 + 0.01 * x2_5) &
    (
      (above_5 = 1) ->
      (
        (x1_5 >= -1.57) &
        (x1_5 <= 1.57)
      )
    ) &
    (
      (above_5 = 1) ->
      (x2_6 = x2_5 + 0.01 * ((9.8 / 9.8) * sin0_5 + (1 / (0.0104123 * 9.8 * 9.8)) * 0.5 * u))
    ) &
    (
      (above_5 = 0) ->
      (
        (x1_5 <= -1.57) |
        (x1_5 >= 1.57)
      )
    ) &
    (
      (above_5 = 0) ->
      (x2_6 = x2_5 + 0.01 * (((9.8 / 9.8) * sin0_5) - ((0.01 / (0.0104123 * 9.8 * 9.8)) * x2_5) + (1 / (0.0104123 * 9.8 * 9.8)) * 0.5 * u))
    ) &
    (-3.14 <= x1_5) &
    (x1_5 <= 3.14) &
    (-3.14 <= x1_6) &
    (x1_6 <= 3.14) &
    (
      (
        (x1_sin0_5 >= -3.14) &
        (x1_sin0_5 <= 0) &
        (sin0_5 >= 0.000507214 * x1_sin0_5 + -1.03876) &
        (sin0_5 <= 0.000507214 * x1_sin0_5 + 0.0397468)
      ) |
      (
        (x1_sin0_5 >= 0) &
        (x1_sin0_5 <= 3.14) &
        (sin0_5 >= 0.000507214 * x1_sin0_5 + -0.0397468) &
        (sin0_5 <= 0.000507214 * x1_sin0_5 + 1.03876)
      )
    ) &
    (x1_5 = 6.28 * x1_sin0_k_5 + x1_sin0_5) &
    (x1_5 = x1_4 + 2 * 3.14 * q_4 + 0.01 * x2_4) &
    (
      (above_4 = 1) ->
      (
        (x1_4 >= -1.57) &
        (x1_4 <= 1.57)
      )
    ) &
    (
      (above_4 = 1) ->
      (x2_5 = x2_4 + 0.01 * ((9.8 / 9.8) * sin0_4 + (1 / (0.0104123 * 9.8 * 9.8)) * 0.5 * u))
    ) &
    (
      (above_4 = 0) ->
      (
        (x1_4 <= -1.57) |
        (x1_4 >= 1.57)
      )
    ) &
    (
      (above_4 = 0) ->
      (x2_5 = x2_4 + 0.01 * (((9.8 / 9.8) * sin0_4) - ((0.01 / (0.0104123 * 9.8 * 9.8)) * x2_4) + (1 / (0.0104123 * 9.8 * 9.8)) * 0.5 * u))
    ) &
    (-3.14 <= x1_4) &
    (x1_4 <= 3.14) &
    (-3.14 <= x1_5) &
    (x1_5 <= 3.14) &
    (
      (
        (x1_sin0_4 >= -3.14) &
        (x1_sin0_4 <= 0) &
        (sin0_4 >= 0.000507214 * x1_sin0_4 + -1.03876) &
        (sin0_4 <= 0.000507214 * x1_sin0_4 + 0.0397468)
      ) |
      (
        (x1_sin0_4 >= 0) &
        (x1_sin0_4 <= 3.14) &
        (sin0_4 >= 0.000507214 * x1_sin0_4 + -0.0397468) &
        (sin0_4 <= 0.000507214 * x1_sin0_4 + 1.03876)
      )
    ) &
    (x1_4 = 6.28 * x1_sin0_k_4 + x1_sin0_4) &
    (x1_4 = x1_3 + 2 * 3.14 * q_3 + 0.01 * x2_3) &
    (
      (above_3 = 1) ->
      (
        (x1_3 >= -1.57) &
        (x1_3 <= 1.57)
      )
    ) &
    (
      (above_3 = 1) ->
      (x2_4 = x2_3 + 0.01 * ((9.8 / 9.8) * sin0_3 + (1 / (0.0104123 * 9.8 * 9.8)) * 0.5 * u))
    ) &
    (
      (above_3 = 0) ->
      (
        (x1_3 <= -1.57) |
        (x1_3 >= 1.57)
      )
    ) &
    (
      (above_3 = 0) ->
      (x2_4 = x2_3 + 0.01 * (((9.8 / 9.8) * sin0_3) - ((0.01 / (0.0104123 * 9.8 * 9.8)) * x2_3) + (1 / (0.0104123 * 9.8 * 9.8)) * 0.5 * u))
    ) &
    (-3.14 <= x1_3) &
    (x1_3 <= 3.14) &
    (-3.14 <= x1_4) &
    (x1_4 <= 3.14) &
    (
      (
        (x1_sin0_3 >= -3.14) &
        (x1_sin0_3 <= 0) &
        (sin0_3 >= 0.000507214 * x1_sin0_3 + -1.03876) &
        (sin0_3 <= 0.000507214 * x1_sin0_3 + 0.0397468)
      ) |
      (
        (x1_sin0_3 >= 0) &
        (x1_sin0_3 <= 3.14) &
        (sin0_3 >= 0.000507214 * x1_sin0_3 + -0.0397468) &
        (sin0_3 <= 0.000507214 * x1_sin0_3 + 1.03876)
      )
    ) &
    (x1_3 = 6.28 * x1_sin0_k_3 + x1_sin0_3) &
    (x1_3 = x1_2 + 2 * 3.14 * q_2 + 0.01 * x2_2) &
    (
      (above_2 = 1) ->
      (
        (x1_2 >= -1.57) &
        (x1_2 <= 1.57)
      )
    ) &
    (
      (above_2 = 1) ->
      (x2_3 = x2_2 + 0.01 * ((9.8 / 9.8) * sin0_2 + (1 / (0.0104123 * 9.8 * 9.8)) * 0.5 * u))
    ) &
    (
      (above_2 = 0) ->
      (
        (x1_2 <= -1.57) |
        (x1_2 >= 1.57)
      )
    ) &
    (
      (above_2 = 0) ->
      (x2_3 = x2_2 + 0.01 * (((9.8 / 9.8) * sin0_2) - ((0.01 / (0.0104123 * 9.8 * 9.8)) * x2_2) + (1 / (0.0104123 * 9.8 * 9.8)) * 0.5 * u))
    ) &
    (-3.14 <= x1_2) &
    (x1_2 <= 3.14) &
    (-3.14 <= x1_3) &
    (x1_3 <= 3.14) &
    (
      (
        (x1_sin0_2 >= -3.14) &
        (x1_sin0_2 <= 0) &
        (sin0_2 >= 0.000507214 * x1_sin0_2 + -1.03876) &
        (sin0_2 <= 0.000507214 * x1_sin0_2 + 0.0397468)
      ) |
      (
        (x1_sin0_2 >= 0) &
        (x1_sin0_2 <= 3.14) &
        (sin0_2 >= 0.000507214 * x1_sin0_2 + -0.0397468) &
        (sin0_2 <= 0.000507214 * x1_sin0_2 + 1.03876)
      )
    ) &
    (x1_2 = 6.28 * x1_sin0_k_2 + x1_sin0_2) &
    (x1_2 = x1_1 + 2 * 3.14 * q_1 + 0.01 * x2_1) &
    (
      (above_1 = 1) ->
      (
        (x1_1 >= -1.57) &
        (x1_1 <= 1.57)
      )
    ) &
    (
      (above_1 = 1) ->
      (x2_2 = x2_1 + 0.01 * ((9.8 / 9.8) * sin0_1 + (1 / (0.0104123 * 9.8 * 9.8)) * 0.5 * u))
    ) &
    (
      (above_1 = 0) ->
      (
        (x1_1 <= -1.57) |
        (x1_1 >= 1.57)
      )
    ) &
    (
      (above_1 = 0) ->
      (x2_2 = x2_1 + 0.01 * (((9.8 / 9.8) * sin0_1) - ((0.01 / (0.0104123 * 9.8 * 9.8)) * x2_1) + (1 / (0.0104123 * 9.8 * 9.8)) * 0.5 * u))
    ) &
    (-3.14 <= x1_1) &
    (x1_1 <= 3.14) &
    (-3.14 <= x1_2) &
    (x1_2 <= 3.14) &
    (
      (
        (x1_sin0_1 >= -3.14) &
        (x1_sin0_1 <= 0) &
        (sin0_1 >= 0.000507214 * x1_sin0_1 + -1.03876) &
        (sin0_1 <= 0.000507214 * x1_sin0_1 + 0.0397468)
      ) |
      (
        (x1_sin0_1 >= 0) &
        (x1_sin0_1 <= 3.14) &
        (sin0_1 >= 0.000507214 * x1_sin0_1 + -0.0397468) &
        (sin0_1 <= 0.000507214 * x1_sin0_1 + 1.03876)
      )
    ) &
    (x1_1 = 6.28 * x1_sin0_k_1 + x1_sin0_1) &
    (x1_1 = x1 + 2 * 3.14 * q_0 + 0.01 * x2) &
    (
      (above_0 = 1) ->
      (
        (x1 >= -1.57) &
        (x1 <= 1.57)
      )
    ) &
    (
      (above_0 = 1) ->
      (x2_1 = x2 + 0.01 * ((9.8 / 9.8) * sin0_0 + (1 / (0.0104123 * 9.8 * 9.8)) * 0.5 * u))
    ) &
    (
      (above_0 = 0) ->
      (
        (x1 <= -1.57) |
        (x1 >= 1.57)
      )
    ) &
    (
      (above_0 = 0) ->
      (x2_1 = x2 + 0.01 * (((9.8 / 9.8) * sin0_0) - ((0.01 / (0.0104123 * 9.8 * 9.8)) * x2) + (1 / (0.0104123 * 9.8 * 9.8)) * 0.5 * u))
    ) &
    (-3.14 <= x1) &
    (x1 <= 3.14) &
    (-3.14 <= x1_1) &
    (x1_1 <= 3.14) &
    (
      (
        (x1_sin0_0 >= -3.14) &
        (x1_sin0_0 <= 0) &
        (sin0_0 >= 0.000507214 * x1_sin0_0 + -1.03876) &
        (sin0_0 <= 0.000507214 * x1_sin0_0 + 0.0397468)
      ) |
      (
        (x1_sin0_0 >= 0) &
        (x1_sin0_0 <= 3.14) &
        (sin0_0 >= 0.000507214 * x1_sin0_0 + -0.0397468) &
        (sin0_0 <= 0.000507214 * x1_sin0_0 + 1.03876)
      )
    ) &
    (x1 = 6.28 * x1_sin0_k_0 + x1_sin0_0);
  };

ControllableRegion
  (-3.454 <= x1) &
  (x1 <= 3.454) &
  (-4 <= x2) &
  (x2 <= 4);

Goal
  (-0.1 <= x1) &
  (x1 <= 0.1) &
  (-0.1 <= x2) &
  (x2 <= 0.1);

Observation
  exists
    dx1: [0, 0.0134922],
    dx2: [0, 0.015625]
  {
    (x1 = -3.454 + 0.0134922 * y1 + dx1) &
    (x2 = -4 + 0.015625 * y2 + dx2);
  };Execution time and memory used by QKS at after LFOLSM processing: 2.000000e-02 seconds, 50499584 bytes of memory usage and 49328 kB of memory peak

************ Input ELP is: ************
Init Subject To
  -3.454 <= x_x1
  x_x1 <= 3.454
  -4 <= x_x2
  x_x2 <= 4
Admissible Region
  x_x1 >= -3.454
  x_x1 <= 3.454
  x_x2 >= -4
  x_x2 <= 4
  w_u >= -1
  w_u <= 1
Next Subject To
  x_x1' = a_x1_8 + 6.28 z_q_8 + 0.01 a_x2_8
  z_above_8 -> {{a_x1_8 >= -1.57} & {a_x1_8 <= 1.57}}
  z_above_8 -> {x_x2' = a_x2_8 + 0.01 a_sin0_8 + 0.00500001 w_u}
  !z_above_8 -> {{a_x1_8 <= -1.57} | {a_x1_8 >= 1.57}}
  !z_above_8 -> {x_x2' = a_x2_8 + 0.01 a_sin0_8 - 0.0001 a_x2_8 + 0.00500001 w_u}
  -3.14 <= a_x1_8
  a_x1_8 <= 3.14
  -3.14 <= x_x1'
  x_x1' <= 3.14
  {{a_x1_sin0_8 >= -3.14} & {a_x1_sin0_8 <= 0} & {a_sin0_8 >= 0.000507214 a_x1_sin0_8 + -1.03876} & {a_sin0_8 <= 0.000507214 a_x1_sin0_8 + 0.0397468}} | {{a_x1_sin0_8 >= 0} & {a_x1_sin0_8 <= 3.14} & {a_sin0_8 >= 0.000507214 a_x1_sin0_8 + -0.0397468} & {a_sin0_8 <= 0.000507214 a_x1_sin0_8 + 1.03876}}
  a_x1_8 = 6.28 z_x1_sin0_k_8 + a_x1_sin0_8
  a_x1_8 = a_x1_7 + 6.28 z_q_7 + 0.01 a_x2_7
  z_above_7 -> {{a_x1_7 >= -1.57} & {a_x1_7 <= 1.57}}
  z_above_7 -> {a_x2_8 = a_x2_7 + 0.01 a_sin0_7 + 0.00500001 w_u}
  !z_above_7 -> {{a_x1_7 <= -1.57} | {a_x1_7 >= 1.57}}
  !z_above_7 -> {a_x2_8 = a_x2_7 + 0.01 a_sin0_7 - 0.0001 a_x2_7 + 0.00500001 w_u}
  -3.14 <= a_x1_7
  a_x1_7 <= 3.14
  -3.14 <= a_x1_8
  a_x1_8 <= 3.14
  {{a_x1_sin0_7 >= -3.14} & {a_x1_sin0_7 <= 0} & {a_sin0_7 >= 0.000507214 a_x1_sin0_7 + -1.03876} & {a_sin0_7 <= 0.000507214 a_x1_sin0_7 + 0.0397468}} | {{a_x1_sin0_7 >= 0} & {a_x1_sin0_7 <= 3.14} & {a_sin0_7 >= 0.000507214 a_x1_sin0_7 + -0.0397468} & {a_sin0_7 <= 0.000507214 a_x1_sin0_7 + 1.03876}}
  a_x1_7 = 6.28 z_x1_sin0_k_7 + a_x1_sin0_7
  a_x1_7 = a_x1_6 + 6.28 z_q_6 + 0.01 a_x2_6
  z_above_6 -> {{a_x1_6 >= -1.57} & {a_x1_6 <= 1.57}}
  z_above_6 -> {a_x2_7 = a_x2_6 + 0.01 a_sin0_6 + 0.00500001 w_u}
  !z_above_6 -> {{a_x1_6 <= -1.57} | {a_x1_6 >= 1.57}}
  !z_above_6 -> {a_x2_7 = a_x2_6 + 0.01 a_sin0_6 - 0.0001 a_x2_6 + 0.00500001 w_u}
  -3.14 <= a_x1_6
  a_x1_6 <= 3.14
  -3.14 <= a_x1_7
  a_x1_7 <= 3.14
  {{a_x1_sin0_6 >= -3.14} & {a_x1_sin0_6 <= 0} & {a_sin0_6 >= 0.000507214 a_x1_sin0_6 + -1.03876} & {a_sin0_6 <= 0.000507214 a_x1_sin0_6 + 0.0397468}} | {{a_x1_sin0_6 >= 0} & {a_x1_sin0_6 <= 3.14} & {a_sin0_6 >= 0.000507214 a_x1_sin0_6 + -0.0397468} & {a_sin0_6 <= 0.000507214 a_x1_sin0_6 + 1.03876}}
  a_x1_6 = 6.28 z_x1_sin0_k_6 + a_x1_sin0_6
  a_x1_6 = a_x1_5 + 6.28 z_q_5 + 0.01 a_x2_5
  z_above_5 -> {{a_x1_5 >= -1.57} & {a_x1_5 <= 1.57}}
  z_above_5 -> {a_x2_6 = a_x2_5 + 0.01 a_sin0_5 + 0.00500001 w_u}
  !z_above_5 -> {{a_x1_5 <= -1.57} | {a_x1_5 >= 1.57}}
  !z_above_5 -> {a_x2_6 = a_x2_5 + 0.01 a_sin0_5 - 0.0001 a_x2_5 + 0.00500001 w_u}
  -3.14 <= a_x1_5
  a_x1_5 <= 3.14
  -3.14 <= a_x1_6
  a_x1_6 <= 3.14
  {{a_x1_sin0_5 >= -3.14} & {a_x1_sin0_5 <= 0} & {a_sin0_5 >= 0.000507214 a_x1_sin0_5 + -1.03876} & {a_sin0_5 <= 0.000507214 a_x1_sin0_5 + 0.0397468}} | {{a_x1_sin0_5 >= 0} & {a_x1_sin0_5 <= 3.14} & {a_sin0_5 >= 0.000507214 a_x1_sin0_5 + -0.0397468} & {a_sin0_5 <= 0.000507214 a_x1_sin0_5 + 1.03876}}
  a_x1_5 = 6.28 z_x1_sin0_k_5 + a_x1_sin0_5
  a_x1_5 = a_x1_4 + 6.28 z_q_4 + 0.01 a_x2_4
  z_above_4 -> {{a_x1_4 >= -1.57} & {a_x1_4 <= 1.57}}
  z_above_4 -> {a_x2_5 = a_x2_4 + 0.01 a_sin0_4 + 0.00500001 w_u}
  !z_above_4 -> {{a_x1_4 <= -1.57} | {a_x1_4 >= 1.57}}
  !z_above_4 -> {a_x2_5 = a_x2_4 + 0.01 a_sin0_4 - 0.0001 a_x2_4 + 0.00500001 w_u}
  -3.14 <= a_x1_4
  a_x1_4 <= 3.14
  -3.14 <= a_x1_5
  a_x1_5 <= 3.14
  {{a_x1_sin0_4 >= -3.14} & {a_x1_sin0_4 <= 0} & {a_sin0_4 >= 0.000507214 a_x1_sin0_4 + -1.03876} & {a_sin0_4 <= 0.000507214 a_x1_sin0_4 + 0.0397468}} | {{a_x1_sin0_4 >= 0} & {a_x1_sin0_4 <= 3.14} & {a_sin0_4 >= 0.000507214 a_x1_sin0_4 + -0.0397468} & {a_sin0_4 <= 0.000507214 a_x1_sin0_4 + 1.03876}}
  a_x1_4 = 6.28 z_x1_sin0_k_4 + a_x1_sin0_4
  a_x1_4 = a_x1_3 + 6.28 z_q_3 + 0.01 a_x2_3
  z_above_3 -> {{a_x1_3 >= -1.57} & {a_x1_3 <= 1.57}}
  z_above_3 -> {a_x2_4 = a_x2_3 + 0.01 a_sin0_3 + 0.00500001 w_u}
  !z_above_3 -> {{a_x1_3 <= -1.57} | {a_x1_3 >= 1.57}}
  !z_above_3 -> {a_x2_4 = a_x2_3 + 0.01 a_sin0_3 - 0.0001 a_x2_3 + 0.00500001 w_u}
  -3.14 <= a_x1_3
  a_x1_3 <= 3.14
  -3.14 <= a_x1_4
  a_x1_4 <= 3.14
  {{a_x1_sin0_3 >= -3.14} & {a_x1_sin0_3 <= 0} & {a_sin0_3 >= 0.000507214 a_x1_sin0_3 + -1.03876} & {a_sin0_3 <= 0.000507214 a_x1_sin0_3 + 0.0397468}} | {{a_x1_sin0_3 >= 0} & {a_x1_sin0_3 <= 3.14} & {a_sin0_3 >= 0.000507214 a_x1_sin0_3 + -0.0397468} & {a_sin0_3 <= 0.000507214 a_x1_sin0_3 + 1.03876}}
  a_x1_3 = 6.28 z_x1_sin0_k_3 + a_x1_sin0_3
  a_x1_3 = a_x1_2 + 6.28 z_q_2 + 0.01 a_x2_2
  z_above_2 -> {{a_x1_2 >= -1.57} & {a_x1_2 <= 1.57}}
  z_above_2 -> {a_x2_3 = a_x2_2 + 0.01 a_sin0_2 + 0.00500001 w_u}
  !z_above_2 -> {{a_x1_2 <= -1.57} | {a_x1_2 >= 1.57}}
  !z_above_2 -> {a_x2_3 = a_x2_2 + 0.01 a_sin0_2 - 0.0001 a_x2_2 + 0.00500001 w_u}
  -3.14 <= a_x1_2
  a_x1_2 <= 3.14
  -3.14 <= a_x1_3
  a_x1_3 <= 3.14
  {{a_x1_sin0_2 >= -3.14} & {a_x1_sin0_2 <= 0} & {a_sin0_2 >= 0.000507214 a_x1_sin0_2 + -1.03876} & {a_sin0_2 <= 0.000507214 a_x1_sin0_2 + 0.0397468}} | {{a_x1_sin0_2 >= 0} & {a_x1_sin0_2 <= 3.14} & {a_sin0_2 >= 0.000507214 a_x1_sin0_2 + -0.0397468} & {a_sin0_2 <= 0.000507214 a_x1_sin0_2 + 1.03876}}
  a_x1_2 = 6.28 z_x1_sin0_k_2 + a_x1_sin0_2
  a_x1_2 = a_x1_1 + 6.28 z_q_1 + 0.01 a_x2_1
  z_above_1 -> {{a_x1_1 >= -1.57} & {a_x1_1 <= 1.57}}
  z_above_1 -> {a_x2_2 = a_x2_1 + 0.01 a_sin0_1 + 0.00500001 w_u}
  !z_above_1 -> {{a_x1_1 <= -1.57} | {a_x1_1 >= 1.57}}
  !z_above_1 -> {a_x2_2 = a_x2_1 + 0.01 a_sin0_1 - 0.0001 a_x2_1 + 0.00500001 w_u}
  -3.14 <= a_x1_1
  a_x1_1 <= 3.14
  -3.14 <= a_x1_2
  a_x1_2 <= 3.14
  {{a_x1_sin0_1 >= -3.14} & {a_x1_sin0_1 <= 0} & {a_sin0_1 >= 0.000507214 a_x1_sin0_1 + -1.03876} & {a_sin0_1 <= 0.000507214 a_x1_sin0_1 + 0.0397468}} | {{a_x1_sin0_1 >= 0} & {a_x1_sin0_1 <= 3.14} & {a_sin0_1 >= 0.000507214 a_x1_sin0_1 + -0.0397468} & {a_sin0_1 <= 0.000507214 a_x1_sin0_1 + 1.03876}}
  a_x1_1 = 6.28 z_x1_sin0_k_1 + a_x1_sin0_1
  a_x1_1 = x_x1 + 6.28 z_q_0 + 0.01 x_x2
  z_above_0 -> {{x_x1 >= -1.57} & {x_x1 <= 1.57}}
  z_above_0 -> {a_x2_1 = x_x2 + 0.01 a_sin0_0 + 0.00500001 w_u}
  !z_above_0 -> {{x_x1 <= -1.57} | {x_x1 >= 1.57}}
  !z_above_0 -> {a_x2_1 = x_x2 + 0.01 a_sin0_0 - 0.0001 x_x2 + 0.00500001 w_u}
  -3.14 <= x_x1
  x_x1 <= 3.14
  -3.14 <= a_x1_1
  a_x1_1 <= 3.14
  {{a_x1_sin0_0 >= -3.14} & {a_x1_sin0_0 <= 0} & {a_sin0_0 >= 0.000507214 a_x1_sin0_0 + -1.03876} & {a_sin0_0 <= 0.000507214 a_x1_sin0_0 + 0.0397468}} | {{a_x1_sin0_0 >= 0} & {a_x1_sin0_0 <= 3.14} & {a_sin0_0 >= 0.000507214 a_x1_sin0_0 + -0.0397468} & {a_sin0_0 <= 0.000507214 a_x1_sin0_0 + 1.03876}}
  x_x1 = 6.28 z_x1_sin0_k_0 + a_x1_sin0_0
  x_x1 >= -3.454
  x_x1 <= 3.454
  x_x2 >= -4
  x_x2 <= 4
  w_u >= -1
  w_u <= 1
  a_x1_sin0_1 >= -3.14
  a_x1_sin0_1 <= 3.14
  a_x1_sin0_2 >= -3.14
  a_x1_sin0_2 <= 3.14
  a_x1_sin0_3 >= -3.14
  a_x1_sin0_3 <= 3.14
  a_x1_sin0_4 >= -3.14
  a_x1_sin0_4 <= 3.14
  a_x1_sin0_5 >= -3.14
  a_x1_sin0_5 <= 3.14
  a_x1_sin0_6 >= -3.14
  a_x1_sin0_6 <= 3.14
  a_x1_sin0_7 >= -3.14
  a_x1_sin0_7 <= 3.14
  a_x1_sin0_8 >= -3.14
  a_x1_sin0_8 <= 3.14
  a_x2_1 >= -4.0308
  a_x2_1 <= 4.0308
  a_x2_2 >= -4.0462
  a_x2_2 <= 4.0462
  a_x2_3 >= -4.0616
  a_x2_3 <= 4.0616
  a_x2_4 >= -4.077
  a_x2_4 <= 4.077
  a_x2_5 >= -4.0924
  a_x2_5 <= 4.0924
  a_x2_6 >= -4.1078
  a_x2_6 <= 4.1078
  a_x2_8 >= -4.1386
  a_x2_8 <= 4.1386
  z_above >= 0
  z_above <= 1
  a_x2_7 >= -4.1232
  a_x2_7 <= 4.1232
  z_q >= -1
  z_q <= 1
  a_x2_0 >= -4.0154
  a_x2_0 <= 4.0154
  a_x1_sin0 >= -3.14
  a_x1_sin0 <= 3.14
  z_x1_sin0_k >= -1
  z_x1_sin0_k <= 1
  a_x1_0 >= -3.14
  a_x1_0 <= 3.14
  a_x1_1 >= -3.14
  a_x1_1 <= 3.14
  a_x1_2 >= -3.14
  a_x1_2 <= 3.14
  a_x1_3 >= -3.14
  a_x1_3 <= 3.14
  a_x1_4 >= -3.14
  a_x1_4 <= 3.14
  a_x1_5 >= -3.14
  a_x1_5 <= 3.14
  a_x1_6 >= -3.14
  a_x1_6 <= 3.14
  a_x1_7 >= -3.14
  a_x1_7 <= 3.14
  a_x1_8 >= -3.14
  a_x1_8 <= 3.14
  z_q_1 >= -1
  z_q_1 <= 1
  z_q_2 >= -1
  z_q_2 <= 1
  z_q_3 >= -1
  z_q_3 <= 1
  z_q_4 >= -1
  z_q_4 <= 1
  z_q_5 >= -1
  z_q_5 <= 1
  z_q_6 >= -1
  z_q_6 <= 1
  z_q_7 >= -1
  z_q_7 <= 1
  z_q_8 >= -1
  z_q_8 <= 1
  a_sin0_1 >= -1.04035
  a_sin0_1 <= 1.04035
  a_sin0_2 >= -1.04035
  a_sin0_2 <= 1.04035
  a_sin0_3 >= -1.04035
  a_sin0_3 <= 1.04035
  a_sin0_4 >= -1.04035
  a_sin0_4 <= 1.04035
  a_sin0_5 >= -1.04035
  a_sin0_5 <= 1.04035
  a_sin0_6 >= -1.04035
  a_sin0_6 <= 1.04035
  a_sin0_7 >= -1.04035
  a_sin0_7 <= 1.04035
  a_sin0_8 >= -1.04035
  a_sin0_8 <= 1.04035
  z_above_0 >= 0
  z_above_0 <= 1
  z_above_1 >= 0
  z_above_1 <= 1
  z_above_2 >= 0
  z_above_2 <= 1
  z_above_3 >= 0
  z_above_3 <= 1
  z_q_0 >= -1
  z_q_0 <= 1
  z_above_5 >= 0
  z_above_5 <= 1
  z_above_6 >= 0
  z_above_6 <= 1
  z_above_7 >= 0
  z_above_7 <= 1
  z_above_4 >= 0
  z_above_4 <= 1
  z_x1_sin0_k_4 >= -1
  z_x1_sin0_k_4 <= 1
  z_x1_sin0_k_5 >= -1
  z_x1_sin0_k_5 <= 1
  z_x1_sin0_k_6 >= -1
  z_x1_sin0_k_6 <= 1
  z_x1_sin0_k_7 >= -1
  z_x1_sin0_k_7 <= 1
  z_x1_sin0_k_8 >= -1
  z_x1_sin0_k_8 <= 1
  z_x1_sin0_k_3 >= -1
  z_x1_sin0_k_3 <= 1
  z_x1_sin0_k_0 >= -1
  z_x1_sin0_k_0 <= 1
  z_x1_sin0_k_1 >= -1
  z_x1_sin0_k_1 <= 1
  z_above_8 >= 0
  z_above_8 <= 1
  a_sin0_0 >= -1.04035
  a_sin0_0 <= 1.04035
  a_sin0 >= -1.04035
  a_sin0 <= 1.04035
  z_x1_sin0_k_2 >= -1
  z_x1_sin0_k_2 <= 1
  a_x1_sin0_0 >= -3.14
  a_x1_sin0_0 <= 3.14
Unsafe
  !{\
    x_x1 >= -3.454 & \
    x_x1 <= 3.454 & \
    x_x2 >= -4 & \
    x_x2 <= 4\
  }
Goal Subject To
  -0.1 <= x_x1
  x_x1 <= 0.1
  -0.1 <= x_x2
  x_x2 <= 0.1
Bounds
  x_x1 free
  x_x1' free
  x_x2 free
  x_x2' free
  a_x1_sin0_1 free
  a_x1_sin0_2 free
  a_x1_sin0_3 free
  a_x1_sin0_4 free
  a_x1_sin0_5 free
  a_x1_sin0_6 free
  a_x1_sin0_7 free
  a_x1_sin0_8 free
  a_x2_1 free
  a_x2_0 free
  a_x2_4 free
  a_x2_2 free
  a_x2_5 free
  a_x2_6 free
  a_x2_8 free
  z_above free
  z_q free
  w_u free
  a_x2_3 free
  a_x2_7 free
  a_x1_sin0 free
  z_x1_sin0_k free
  a_x1_0 free
  a_x1_1 free
  a_x1_2 free
  a_x1_3 free
  a_x1_4 free
  a_x1_5 free
  a_x1_6 free
  a_x1_7 free
  a_x1_8 free
  z_q_1 free
  z_q_2 free
  z_q_3 free
  z_q_4 free
  z_q_5 free
  z_q_6 free
  z_q_7 free
  z_q_8 free
  a_sin0_1 free
  a_sin0_2 free
  a_sin0_3 free
  a_sin0_4 free
  a_sin0_5 free
  a_sin0_6 free
  a_sin0_7 free
  a_sin0_8 free
  z_above_0 free
  z_above_1 free
  z_above_2 free
  z_above_3 free
  z_q_0 free
  z_above_5 free
  z_above_6 free
  z_above_7 free
  z_above_4 free
  z_x1_sin0_k_4 free
  z_x1_sin0_k_5 free
  z_x1_sin0_k_6 free
  z_x1_sin0_k_7 free
  z_x1_sin0_k_8 free
  z_x1_sin0_k_0 free
  z_x1_sin0_k_1 free
  z_x1_sin0_k_3 free
  a_sin0_0 free
  a_sin0 free
  z_x1_sin0_k_2 free
  z_above_8 free
  a_dx2 free
  a_dx1 free
  a_x1_sin0_0 free
Binary
  z_above
  z_above_0
  z_above_1
  z_above_2
  z_above_3
  z_above_5
  z_above_6
  z_above_7
  z_above_4
  z_above_8
General
  w_u
  z_q
  z_x1_sin0_k
  z_q_1
  z_q_2
  z_q_3
  z_q_4
  z_q_5
  z_q_6
  z_q_7
  z_q_8
  z_q_0
  z_x1_sin0_k_4
  z_x1_sin0_k_5
  z_x1_sin0_k_6
  z_x1_sin0_k_7
  z_x1_sin0_k_8
  z_x1_sin0_k_3
  z_x1_sin0_k_0
  z_x1_sin0_k_1
  z_x1_sin0_k_2
End

Using bounds:
	-4.000000 <= x_x2 <= 4.000000
	-3.140000 <= x_x1 <= 3.140000
	-3.140000 <= x_x1' <= 3.140000
	-4.154000 <= x_x2' <= 4.154000
	-1.000000 <= w_u <= 1.000000
	-4.138600 <= a_x2_8 <= 4.138600
	-3.140000 <= a_x1_8 <= 3.140000
	-1.000000 <= z_q_8 <= 1.000000
	0.000000 <= z_above_8 <= 1.000000
	-1.000000 <= z_x1_sin0_k_8 <= 1.000000
	-3.140000 <= a_x1_sin0_8 <= 3.140000
	-1.040350 <= a_sin0_8 <= 1.040350
	-3.140000 <= a_x1_7 <= 3.140000
	-4.123200 <= a_x2_7 <= 4.123200
	-1.000000 <= z_q_7 <= 1.000000
	0.000000 <= z_above_7 <= 1.000000
	-1.000000 <= z_x1_sin0_k_7 <= 1.000000
	-3.140000 <= a_x1_sin0_7 <= 3.140000
	-1.040350 <= a_sin0_7 <= 1.040350
	-4.107800 <= a_x2_6 <= 4.107800
	-3.140000 <= a_x1_6 <= 3.140000
	-1.000000 <= z_q_6 <= 1.000000
	0.000000 <= z_above_6 <= 1.000000
	-1.000000 <= z_x1_sin0_k_6 <= 1.000000
	-3.140000 <= a_x1_sin0_6 <= 3.140000
	-1.040350 <= a_sin0_6 <= 1.040350
	-3.140000 <= a_x1_5 <= 3.140000
	-4.092400 <= a_x2_5 <= 4.092400
	-1.000000 <= z_q_5 <= 1.000000
	0.000000 <= z_above_5 <= 1.000000
	-1.000000 <= z_x1_sin0_k_5 <= 1.000000
	-3.140000 <= a_x1_sin0_5 <= 3.140000
	-1.040350 <= a_sin0_5 <= 1.040350
	-4.077000 <= a_x2_4 <= 4.077000
	-3.140000 <= a_x1_4 <= 3.140000
	-1.000000 <= z_q_4 <= 1.000000
	0.000000 <= z_above_4 <= 1.000000
	-1.000000 <= z_x1_sin0_k_4 <= 1.000000
	-3.140000 <= a_x1_sin0_4 <= 3.140000
	-1.040350 <= a_sin0_4 <= 1.040350
	-3.140000 <= a_x1_3 <= 3.140000
	-4.061600 <= a_x2_3 <= 4.061600
	-1.000000 <= z_q_3 <= 1.000000
	0.000000 <= z_above_3 <= 1.000000
	-1.000000 <= z_x1_sin0_k_3 <= 1.000000
	-3.140000 <= a_x1_sin0_3 <= 3.140000
	-1.040350 <= a_sin0_3 <= 1.040350
	-4.046200 <= a_x2_2 <= 4.046200
	-3.140000 <= a_x1_2 <= 3.140000
	-1.000000 <= z_q_2 <= 1.000000
	0.000000 <= z_above_2 <= 1.000000
	-1.000000 <= z_x1_sin0_k_2 <= 1.000000
	-3.140000 <= a_x1_sin0_2 <= 3.140000
	-1.040350 <= a_sin0_2 <= 1.040350
	-3.140000 <= a_x1_1 <= 3.140000
	-4.030800 <= a_x2_1 <= 4.030800
	-1.000000 <= z_q_1 <= 1.000000
	0.000000 <= z_above_1 <= 1.000000
	-1.000000 <= z_x1_sin0_k_1 <= 1.000000
	-3.140000 <= a_x1_sin0_1 <= 3.140000
	-1.040350 <= a_sin0_1 <= 1.040350
	-4.015400 <= a_x2_0 <= 4.015400
	-3.140000 <= a_x1_0 <= 3.140000
	-1.000000 <= z_q_0 <= 1.000000
	0.000000 <= z_above_0 <= 1.000000
	-1.000000 <= z_x1_sin0_k_0 <= 1.000000
	-3.140000 <= a_x1_sin0_0 <= 3.140000
	-1.040350 <= a_sin0_0 <= 1.040350
	-1.000000 <= z_q <= 1.000000
	0.000000 <= z_above <= 1.000000
	-1.000000 <= z_x1_sin0_k <= 1.000000
	-3.140000 <= a_x1_sin0 <= 3.140000
	-1.040350 <= a_sin0 <= 1.040350
Generating LALR tables
Generating LALR tables
Generating LALR tables
Generating LALR tables
Generating LALR tables
Execution time and memory used by QKS at after preprocessing: 4.000000e-02 seconds, 54018048 bytes of memory usage and 53780 kB of memory peak

************Input INIT LP is:************
Maximize
 obj: + x_x1 + x_x1' + x_x2 + x_x2' + a_x1_sin0_1 + a_x1_sin0_2 + a_x1_sin0_3 + a_x1_sin0_4 + a_x1_sin0_5 + a_x1_sin0_6 + a_x1_sin0_7 + a_x1_sin0_8 + a_x2_1 + a_x2_0 + a_x2_4 + a_x2_2 + a_x2_5 + a_x2_6 + a_x2_8 + z_above + z_q + w_u + a_x2_3 + a_x2_7 + a_x1_sin0 + z_x1_sin0_k + a_x1_0 + a_x1_1 + a_x1_2 + a_x1_3 + a_x1_4 + a_x1_5 + a_x1_6 + a_x1_7 + a_x1_8 + z_q_1 + z_q_2 + z_q_3 + z_q_4 + z_q_5 + z_q_6 + z_q_7 + z_q_8 + a_sin0_1 + a_sin0_2 + a_sin0_3 + a_sin0_4 + a_sin0_5 + a_sin0_6 + a_sin0_7 + a_sin0_8 + z_above_0 + z_above_1 + z_above_2 + z_above_3 + z_q_0 + z_above_5 + z_above_6 + z_above_7 + z_above_4 + z_x1_sin0_k_4 + z_x1_sin0_k_5 + z_x1_sin0_k_6 + z_x1_sin0_k_7 + z_x1_sin0_k_8 + z_x1_sin0_k_0 + z_x1_sin0_k_1 + z_x1_sin0_k_3 + a_sin0_0 + a_sin0 + z_x1_sin0_k_2 + z_above_8 + a_dx2 + a_dx1 + a_x1_sin0_0  + z_new_vars_next0
 + z_new_vars_next1
 + z_new_vars_next2
 + z_new_vars_next3
 + z_new_vars_next4
 + z_new_vars_next5
 + z_new_vars_next6
 + z_new_vars_next7
 + z_new_vars_next8
 + z_new_vars_next9
 + z_new_vars_next10
 + z_new_vars_next11
 + z_new_vars_next12
 + z_new_vars_next13
 + z_new_vars_next14
 + z_new_vars_next15
 + z_new_vars_next16
 + z_new_vars_next17
 + z_new_vars_next18
 + z_new_vars_next19
 + z_new_vars_next20
 + z_new_vars_next21
 + z_new_vars_next22
 + z_new_vars_next23
 + z_new_vars_next24
 + z_new_vars_next25
 + z_new_vars_next26
 + z_new_vars_next27
 + z_new_vars_next28
 + z_new_vars_next29
 + z_new_vars_next30
 + z_new_vars_next31
 + z_new_vars_next32
 + z_new_vars_next33
 + z_new_vars_next34
 + z_new_vars_next35
 + z_new_vars_not_safety0
 + z_new_vars_not_safety1
 + z_new_vars_not_safety2
 + z_new_vars_not_safety3

Subject To
-x_x1 <= 3.454
x_x1 <= 3.454
-x_x2 <= 4
x_x2 <= 4
Bounds
x_x1 free
x_x1' free
x_x2 free
x_x2' free
a_x1_sin0_1 free
a_x1_sin0_2 free
a_x1_sin0_3 free
a_x1_sin0_4 free
a_x1_sin0_5 free
a_x1_sin0_6 free
a_x1_sin0_7 free
a_x1_sin0_8 free
a_x2_1 free
a_x2_0 free
a_x2_4 free
a_x2_2 free
a_x2_5 free
a_x2_6 free
a_x2_8 free
z_above free
z_q free
w_u free
a_x2_3 free
a_x2_7 free
a_x1_sin0 free
z_x1_sin0_k free
a_x1_0 free
a_x1_1 free
a_x1_2 free
a_x1_3 free
a_x1_4 free
a_x1_5 free
a_x1_6 free
a_x1_7 free
a_x1_8 free
z_q_1 free
z_q_2 free
z_q_3 free
z_q_4 free
z_q_5 free
z_q_6 free
z_q_7 free
z_q_8 free
a_sin0_1 free
a_sin0_2 free
a_sin0_3 free
a_sin0_4 free
a_sin0_5 free
a_sin0_6 free
a_sin0_7 free
a_sin0_8 free
z_above_0 free
z_above_1 free
z_above_2 free
z_above_3 free
z_q_0 free
z_above_5 free
z_above_6 free
z_above_7 free
z_above_4 free
z_x1_sin0_k_4 free
z_x1_sin0_k_5 free
z_x1_sin0_k_6 free
z_x1_sin0_k_7 free
z_x1_sin0_k_8 free
z_x1_sin0_k_0 free
z_x1_sin0_k_1 free
z_x1_sin0_k_3 free
a_sin0_0 free
a_sin0 free
z_x1_sin0_k_2 free
z_above_8 free
a_dx2 free
a_dx1 free
a_x1_sin0_0 free
0 <= z_new_vars_next0 <= 1
0 <= z_new_vars_next1 <= 1
0 <= z_new_vars_next2 <= 1
0 <= z_new_vars_next3 <= 1
0 <= z_new_vars_next4 <= 1
0 <= z_new_vars_next5 <= 1
0 <= z_new_vars_next6 <= 1
0 <= z_new_vars_next7 <= 1
0 <= z_new_vars_next8 <= 1
0 <= z_new_vars_next9 <= 1
0 <= z_new_vars_next10 <= 1
0 <= z_new_vars_next11 <= 1
0 <= z_new_vars_next12 <= 1
0 <= z_new_vars_next13 <= 1
0 <= z_new_vars_next14 <= 1
0 <= z_new_vars_next15 <= 1
0 <= z_new_vars_next16 <= 1
0 <= z_new_vars_next17 <= 1
0 <= z_new_vars_next18 <= 1
0 <= z_new_vars_next19 <= 1
0 <= z_new_vars_next20 <= 1
0 <= z_new_vars_next21 <= 1
0 <= z_new_vars_next22 <= 1
0 <= z_new_vars_next23 <= 1
0 <= z_new_vars_next24 <= 1
0 <= z_new_vars_next25 <= 1
0 <= z_new_vars_next26 <= 1
0 <= z_new_vars_next27 <= 1
0 <= z_new_vars_next28 <= 1
0 <= z_new_vars_next29 <= 1
0 <= z_new_vars_next30 <= 1
0 <= z_new_vars_next31 <= 1
0 <= z_new_vars_next32 <= 1
0 <= z_new_vars_next33 <= 1
0 <= z_new_vars_next34 <= 1
0 <= z_new_vars_next35 <= 1
0 <= z_new_vars_not_safety0 <= 1
0 <= z_new_vars_not_safety1 <= 1
0 <= z_new_vars_not_safety2 <= 1
0 <= z_new_vars_not_safety3 <= 1
Binary
z_above
z_above_0
z_above_1
z_above_2
z_above_3
z_above_5
z_above_6
z_above_7
z_above_4
z_above_8
z_new_vars_next0
z_new_vars_next1
z_new_vars_next2
z_new_vars_next3
z_new_vars_next4
z_new_vars_next5
z_new_vars_next6
z_new_vars_next7
z_new_vars_next8
z_new_vars_next9
z_new_vars_next10
z_new_vars_next11
z_new_vars_next12
z_new_vars_next13
z_new_vars_next14
z_new_vars_next15
z_new_vars_next16
z_new_vars_next17
z_new_vars_next18
z_new_vars_next19
z_new_vars_next20
z_new_vars_next21
z_new_vars_next22
z_new_vars_next23
z_new_vars_next24
z_new_vars_next25
z_new_vars_next26
z_new_vars_next27
z_new_vars_next28
z_new_vars_next29
z_new_vars_next30
z_new_vars_next31
z_new_vars_next32
z_new_vars_next33
z_new_vars_next34
z_new_vars_next35
z_new_vars_not_safety0
z_new_vars_not_safety1
z_new_vars_not_safety2
z_new_vars_not_safety3
General
w_u
z_q
z_x1_sin0_k
z_q_1
z_q_2
z_q_3
z_q_4
z_q_5
z_q_6
z_q_7
z_q_8
z_q_0
z_x1_sin0_k_4
z_x1_sin0_k_5
z_x1_sin0_k_6
z_x1_sin0_k_7
z_x1_sin0_k_8
z_x1_sin0_k_3
z_x1_sin0_k_0
z_x1_sin0_k_1
z_x1_sin0_k_2
End

************Input NEXT LP is:************
Maximize
 obj: + x_x1 + x_x1' + x_x2 + x_x2' + a_x1_sin0_1 + a_x1_sin0_2 + a_x1_sin0_3 + a_x1_sin0_4 + a_x1_sin0_5 + a_x1_sin0_6 + a_x1_sin0_7 + a_x1_sin0_8 + a_x2_1 + a_x2_0 + a_x2_4 + a_x2_2 + a_x2_5 + a_x2_6 + a_x2_8 + z_above + z_q + w_u + a_x2_3 + a_x2_7 + a_x1_sin0 + z_x1_sin0_k + a_x1_0 + a_x1_1 + a_x1_2 + a_x1_3 + a_x1_4 + a_x1_5 + a_x1_6 + a_x1_7 + a_x1_8 + z_q_1 + z_q_2 + z_q_3 + z_q_4 + z_q_5 + z_q_6 + z_q_7 + z_q_8 + a_sin0_1 + a_sin0_2 + a_sin0_3 + a_sin0_4 + a_sin0_5 + a_sin0_6 + a_sin0_7 + a_sin0_8 + z_above_0 + z_above_1 + z_above_2 + z_above_3 + z_q_0 + z_above_5 + z_above_6 + z_above_7 + z_above_4 + z_x1_sin0_k_4 + z_x1_sin0_k_5 + z_x1_sin0_k_6 + z_x1_sin0_k_7 + z_x1_sin0_k_8 + z_x1_sin0_k_0 + z_x1_sin0_k_1 + z_x1_sin0_k_3 + a_sin0_0 + a_sin0 + z_x1_sin0_k_2 + z_above_8 + a_dx2 + a_dx1 + a_x1_sin0_0  + z_new_vars_next0
 + z_new_vars_next1
 + z_new_vars_next2
 + z_new_vars_next3
 + z_new_vars_next4
 + z_new_vars_next5
 + z_new_vars_next6
 + z_new_vars_next7
 + z_new_vars_next8
 + z_new_vars_next9
 + z_new_vars_next10
 + z_new_vars_next11
 + z_new_vars_next12
 + z_new_vars_next13
 + z_new_vars_next14
 + z_new_vars_next15
 + z_new_vars_next16
 + z_new_vars_next17
 + z_new_vars_next18
 + z_new_vars_next19
 + z_new_vars_next20
 + z_new_vars_next21
 + z_new_vars_next22
 + z_new_vars_next23
 + z_new_vars_next24
 + z_new_vars_next25
 + z_new_vars_next26
 + z_new_vars_next27
 + z_new_vars_next28
 + z_new_vars_next29
 + z_new_vars_next30
 + z_new_vars_next31
 + z_new_vars_next32
 + z_new_vars_next33
 + z_new_vars_next34
 + z_new_vars_next35
 + z_new_vars_not_safety0
 + z_new_vars_not_safety1
 + z_new_vars_not_safety2
 + z_new_vars_not_safety3

Subject To
x_x1' - 0.01 a_x2_8 - a_x1_8 - 6.28 z_q_8 <= 0
-x_x1' + 0.01 a_x2_8 + 6.28 z_q_8 + a_x1_8 <= 0
1.57 z_above_8 - a_x1_8 <= 3.14
1.57 z_above_8 + a_x1_8 <= 3.14
-0.00500001 w_u - a_x2_8 + 8.30800351 z_above_8 + x_x2' - 0.01 a_sin0_8 <= 8.30800351
0.00500001 w_u + a_x2_8 + 8.30800351 z_above_8 - x_x2' + 0.01 a_sin0_8 <= 8.30800351
-z_above_8 - z_new_vars_next0 - z_new_vars_next1 <= -1
-4.71 z_above_8 + a_x1_8 + 4.71 z_new_vars_next0 <= 3.14
-4.71 z_above_8 - a_x1_8 + 4.71 z_new_vars_next1 <= 3.14
-0.00500001 w_u - 0.9999 a_x2_8 - 8.30758965 z_above_8 + x_x2' - 0.01 a_sin0_8 <= 0
0.00500001 w_u + 0.9999 a_x2_8 - 8.30758965 z_above_8 - x_x2' + 0.01 a_sin0_8 <= 0
-a_x1_8 <= 3.14
a_x1_8 <= 3.14
-x_x1' <= 3.14
x_x1' <= 3.14
-z_new_vars_next2 - z_new_vars_next3 <= -1
-a_x1_sin0_8 <= 3.14
a_x1_sin0_8 + 3.14 z_new_vars_next2 <= 3.14
0.000507214 a_x1_sin0_8 + 0.00318265196 z_new_vars_next2 - a_sin0_8 <= 1.04194265196
-0.000507214 a_x1_sin0_8 + 1.00219585196 z_new_vars_next2 + a_sin0_8 <= 1.04194265196
-a_x1_sin0_8 + 3.14 z_new_vars_next3 <= 3.14
a_x1_sin0_8 <= 3.14
0.000507214 a_x1_sin0_8 + 1.00219585196 z_new_vars_next3 - a_sin0_8 <= 1.04194265196
-0.000507214 a_x1_sin0_8 + 0.00318265196 z_new_vars_next3 + a_sin0_8 <= 1.04194265196
-a_x1_sin0_8 + a_x1_8 - 6.28 z_x1_sin0_k_8 <= 0
a_x1_sin0_8 - a_x1_8 + 6.28 z_x1_sin0_k_8 <= 0
-a_x1_7 - 0.01 a_x2_7 + a_x1_8 - 6.28 z_q_7 <= 0
a_x1_7 - a_x1_8 + 0.01 a_x2_7 + 6.28 z_q_7 <= 0
-a_x1_7 + 1.57 z_above_7 <= 3.14
a_x1_7 + 1.57 z_above_7 <= 3.14
-0.01 a_sin0_7 + a_x2_8 + 8.27720351 z_above_7 - a_x2_7 - 0.00500001 w_u <= 8.27720351
0.01 a_sin0_7 - a_x2_8 + 8.27720351 z_above_7 + a_x2_7 + 0.00500001 w_u <= 8.27720351
-z_above_7 - z_new_vars_next4 - z_new_vars_next5 <= -1
a_x1_7 + 4.71 z_new_vars_next4 - 4.71 z_above_7 <= 3.14
-4.71 z_above_7 - a_x1_7 + 4.71 z_new_vars_next5 <= 3.14
-0.01 a_sin0_7 + a_x2_8 - 8.27679119 z_above_7 - 0.9999 a_x2_7 - 0.00500001 w_u <= 0
0.01 a_sin0_7 - a_x2_8 - 8.27679119 z_above_7 + 0.9999 a_x2_7 + 0.00500001 w_u <= 0
-a_x1_7 <= 3.14
a_x1_7 <= 3.14
-a_x1_8 <= 3.14
a_x1_8 <= 3.14
-z_new_vars_next6 - z_new_vars_next7 <= -1
-a_x1_sin0_7 <= 3.14
3.14 z_new_vars_next6 + a_x1_sin0_7 <= 3.14
-a_sin0_7 + 0.00318265196 z_new_vars_next6 + 0.000507214 a_x1_sin0_7 <= 1.04194265196
a_sin0_7 + 1.00219585196 z_new_vars_next6 - 0.000507214 a_x1_sin0_7 <= 1.04194265196
3.14 z_new_vars_next7 - a_x1_sin0_7 <= 3.14
a_x1_sin0_7 <= 3.14
-a_sin0_7 + 1.00219585196 z_new_vars_next7 + 0.000507214 a_x1_sin0_7 <= 1.04194265196
a_sin0_7 + 0.00318265196 z_new_vars_next7 - 0.000507214 a_x1_sin0_7 <= 1.04194265196
-6.28 z_x1_sin0_k_7 + a_x1_7 - a_x1_sin0_7 <= 0
6.28 z_x1_sin0_k_7 - a_x1_7 + a_x1_sin0_7 <= 0
-a_x1_6 + a_x1_7 - 6.28 z_q_6 - 0.01 a_x2_6 <= 0
a_x1_6 - a_x1_7 + 6.28 z_q_6 + 0.01 a_x2_6 <= 0
-a_x1_6 + 1.57 z_above_6 <= 3.14
a_x1_6 + 1.57 z_above_6 <= 3.14
-0.00500001 w_u - 0.01 a_sin0_6 + 8.24640351 z_above_6 + a_x2_7 - a_x2_6 <= 8.24640351
0.00500001 w_u + 0.01 a_sin0_6 + 8.24640351 z_above_6 - a_x2_7 + a_x2_6 <= 8.24640351
-z_above_6 - z_new_vars_next8 - z_new_vars_next9 <= -1
a_x1_6 - 4.71 z_above_6 + 4.71 z_new_vars_next8 <= 3.14
-a_x1_6 - 4.71 z_above_6 + 4.71 z_new_vars_next9 <= 3.14
-0.00500001 w_u - 0.01 a_sin0_6 - 8.24599273 z_above_6 + a_x2_7 - 0.9999 a_x2_6 <= 0
0.00500001 w_u + 0.01 a_sin0_6 - 8.24599273 z_above_6 - a_x2_7 + 0.9999 a_x2_6 <= 0
-a_x1_6 <= 3.14
a_x1_6 <= 3.14
-a_x1_7 <= 3.14
a_x1_7 <= 3.14
-z_new_vars_next10 - z_new_vars_next11 <= -1
-a_x1_sin0_6 <= 3.14
3.14 z_new_vars_next10 + a_x1_sin0_6 <= 3.14
-a_sin0_6 + 0.00318265196 z_new_vars_next10 + 0.000507214 a_x1_sin0_6 <= 1.04194265196
a_sin0_6 + 1.00219585196 z_new_vars_next10 - 0.000507214 a_x1_sin0_6 <= 1.04194265196
3.14 z_new_vars_next11 - a_x1_sin0_6 <= 3.14
a_x1_sin0_6 <= 3.14
-a_sin0_6 + 1.00219585196 z_new_vars_next11 + 0.000507214 a_x1_sin0_6 <= 1.04194265196
a_sin0_6 + 0.00318265196 z_new_vars_next11 - 0.000507214 a_x1_sin0_6 <= 1.04194265196
a_x1_6 - 6.28 z_x1_sin0_k_6 - a_x1_sin0_6 <= 0
-a_x1_6 + 6.28 z_x1_sin0_k_6 + a_x1_sin0_6 <= 0
a_x1_6 - 0.01 a_x2_5 - 6.28 z_q_5 - a_x1_5 <= 0
-a_x1_6 + a_x1_5 + 6.28 z_q_5 + 0.01 a_x2_5 <= 0
1.57 z_above_5 - a_x1_5 <= 3.14
1.57 z_above_5 + a_x1_5 <= 3.14
-0.00500001 w_u + 8.21560351 z_above_5 - 0.01 a_sin0_5 - a_x2_5 + a_x2_6 <= 8.21560351
0.00500001 w_u + 8.21560351 z_above_5 + 0.01 a_sin0_5 + a_x2_5 - a_x2_6 <= 8.21560351
-z_above_5 - z_new_vars_next12 - z_new_vars_next13 <= -1
-4.71 z_above_5 + a_x1_5 + 4.71 z_new_vars_next12 <= 3.14
-4.71 z_above_5 - a_x1_5 + 4.71 z_new_vars_next13 <= 3.14
-0.00500001 w_u - 8.21519427 z_above_5 - 0.01 a_sin0_5 - 0.9999 a_x2_5 + a_x2_6 <= 0
0.00500001 w_u - 8.21519427 z_above_5 + 0.01 a_sin0_5 + 0.9999 a_x2_5 - a_x2_6 <= 0
-a_x1_5 <= 3.14
a_x1_5 <= 3.14
-a_x1_6 <= 3.14
a_x1_6 <= 3.14
-z_new_vars_next14 - z_new_vars_next15 <= -1
-a_x1_sin0_5 <= 3.14
3.14 z_new_vars_next14 + a_x1_sin0_5 <= 3.14
0.00318265196 z_new_vars_next14 - a_sin0_5 + 0.000507214 a_x1_sin0_5 <= 1.04194265196
1.00219585196 z_new_vars_next14 + a_sin0_5 - 0.000507214 a_x1_sin0_5 <= 1.04194265196
3.14 z_new_vars_next15 - a_x1_sin0_5 <= 3.14
a_x1_sin0_5 <= 3.14
1.00219585196 z_new_vars_next15 - a_sin0_5 + 0.000507214 a_x1_sin0_5 <= 1.04194265196
0.00318265196 z_new_vars_next15 + a_sin0_5 - 0.000507214 a_x1_sin0_5 <= 1.04194265196
-6.28 z_x1_sin0_k_5 + a_x1_5 - a_x1_sin0_5 <= 0
6.28 z_x1_sin0_k_5 - a_x1_5 + a_x1_sin0_5 <= 0
-a_x1_4 + a_x1_5 - 6.28 z_q_4 - 0.01 a_x2_4 <= 0
a_x1_4 - a_x1_5 + 6.28 z_q_4 + 0.01 a_x2_4 <= 0
1.57 z_above_4 - a_x1_4 <= 3.14
1.57 z_above_4 + a_x1_4 <= 3.14
-0.00500001 w_u + 8.18480351 z_above_4 - 0.01 a_sin0_4 + a_x2_5 - a_x2_4 <= 8.18480351
0.00500001 w_u + 8.18480351 z_above_4 + 0.01 a_sin0_4 - a_x2_5 + a_x2_4 <= 8.18480351
-z_above_4 - z_new_vars_next16 - z_new_vars_next17 <= -1
-4.71 z_above_4 + a_x1_4 + 4.71 z_new_vars_next16 <= 3.14
-4.71 z_above_4 - a_x1_4 + 4.71 z_new_vars_next17 <= 3.14
-0.00500001 w_u - 8.18439581 z_above_4 - 0.01 a_sin0_4 + a_x2_5 - 0.9999 a_x2_4 <= 0
0.00500001 w_u - 8.18439581 z_above_4 + 0.01 a_sin0_4 - a_x2_5 + 0.9999 a_x2_4 <= 0
-a_x1_4 <= 3.14
a_x1_4 <= 3.14
-a_x1_5 <= 3.14
a_x1_5 <= 3.14
-z_new_vars_next18 - z_new_vars_next19 <= -1
-a_x1_sin0_4 <= 3.14
a_x1_sin0_4 + 3.14 z_new_vars_next18 <= 3.14
0.00318265196 z_new_vars_next18 - a_sin0_4 + 0.000507214 a_x1_sin0_4 <= 1.04194265196
1.00219585196 z_new_vars_next18 + a_sin0_4 - 0.000507214 a_x1_sin0_4 <= 1.04194265196
-a_x1_sin0_4 + 3.14 z_new_vars_next19 <= 3.14
a_x1_sin0_4 <= 3.14
-a_sin0_4 + 0.000507214 a_x1_sin0_4 + 1.00219585196 z_new_vars_next19 <= 1.04194265196
a_sin0_4 - 0.000507214 a_x1_sin0_4 + 0.00318265196 z_new_vars_next19 <= 1.04194265196
a_x1_4 - 6.28 z_x1_sin0_k_4 - a_x1_sin0_4 <= 0
-a_x1_4 + 6.28 z_x1_sin0_k_4 + a_x1_sin0_4 <= 0
a_x1_4 - 0.01 a_x2_3 - 6.28 z_q_3 - a_x1_3 <= 0
a_x1_3 - a_x1_4 + 0.01 a_x2_3 + 6.28 z_q_3 <= 0
-a_x1_3 + 1.57 z_above_3 <= 3.14
a_x1_3 + 1.57 z_above_3 <= 3.14
-0.00500001 w_u - a_x2_3 - 0.01 a_sin0_3 + a_x2_4 + 8.15400351 z_above_3 <= 8.15400351
0.00500001 w_u + a_x2_3 + 0.01 a_sin0_3 - a_x2_4 + 8.15400351 z_above_3 <= 8.15400351
-z_new_vars_next21 - z_new_vars_next20 - z_above_3 <= -1
-4.71 z_above_3 + a_x1_3 + 4.71 z_new_vars_next20 <= 3.14
4.71 z_new_vars_next21 - a_x1_3 - 4.71 z_above_3 <= 3.14
-0.00500001 w_u - 0.9999 a_x2_3 - 0.01 a_sin0_3 + a_x2_4 - 8.15359735 z_above_3 <= 0
0.00500001 w_u + 0.9999 a_x2_3 + 0.01 a_sin0_3 - a_x2_4 - 8.15359735 z_above_3 <= 0
-a_x1_3 <= 3.14
a_x1_3 <= 3.14
-a_x1_4 <= 3.14
a_x1_4 <= 3.14
-z_new_vars_next23 - z_new_vars_next22 <= -1
-a_x1_sin0_3 <= 3.14
a_x1_sin0_3 + 3.14 z_new_vars_next22 <= 3.14
0.000507214 a_x1_sin0_3 - a_sin0_3 + 0.00318265196 z_new_vars_next22 <= 1.04194265196
-0.000507214 a_x1_sin0_3 + a_sin0_3 + 1.00219585196 z_new_vars_next22 <= 1.04194265196
-a_x1_sin0_3 + 3.14 z_new_vars_next23 <= 3.14
a_x1_sin0_3 <= 3.14
0.000507214 a_x1_sin0_3 - a_sin0_3 + 1.00219585196 z_new_vars_next23 <= 1.04194265196
-0.000507214 a_x1_sin0_3 + a_sin0_3 + 0.00318265196 z_new_vars_next23 <= 1.04194265196
-a_x1_sin0_3 - 6.28 z_x1_sin0_k_3 + a_x1_3 <= 0
a_x1_sin0_3 + 6.28 z_x1_sin0_k_3 - a_x1_3 <= 0
-a_x1_2 - 0.01 a_x2_2 - 6.28 z_q_2 + a_x1_3 <= 0
6.28 z_q_2 + 0.01 a_x2_2 + a_x1_2 - a_x1_3 <= 0
-a_x1_2 + 1.57 z_above_2 <= 3.14
a_x1_2 + 1.57 z_above_2 <= 3.14
-0.00500001 w_u + a_x2_3 - a_x2_2 - 0.01 a_sin0_2 + 8.12320351 z_above_2 <= 8.12320351
0.00500001 w_u - a_x2_3 + a_x2_2 + 0.01 a_sin0_2 + 8.12320351 z_above_2 <= 8.12320351
-z_new_vars_next25 - z_new_vars_next24 - z_above_2 <= -1
4.71 z_new_vars_next24 + a_x1_2 - 4.71 z_above_2 <= 3.14
4.71 z_new_vars_next25 - a_x1_2 - 4.71 z_above_2 <= 3.14
-0.00500001 w_u + a_x2_3 - 0.9999 a_x2_2 - 0.01 a_sin0_2 - 8.12279889 z_above_2 <= 0
0.00500001 w_u - a_x2_3 + 0.9999 a_x2_2 + 0.01 a_sin0_2 - 8.12279889 z_above_2 <= 0
-a_x1_2 <= 3.14
a_x1_2 <= 3.14
-a_x1_3 <= 3.14
a_x1_3 <= 3.14
-z_new_vars_next27 - z_new_vars_next26 <= -1
-a_x1_sin0_2 <= 3.14
a_x1_sin0_2 + 3.14 z_new_vars_next26 <= 3.14
0.000507214 a_x1_sin0_2 + 0.00318265196 z_new_vars_next26 - a_sin0_2 <= 1.04194265196
-0.000507214 a_x1_sin0_2 + 1.00219585196 z_new_vars_next26 + a_sin0_2 <= 1.04194265196
-a_x1_sin0_2 + 3.14 z_new_vars_next27 <= 3.14
a_x1_sin0_2 <= 3.14
1.00219585196 z_new_vars_next27 + 0.000507214 a_x1_sin0_2 - a_sin0_2 <= 1.04194265196
0.00318265196 z_new_vars_next27 - 0.000507214 a_x1_sin0_2 + a_sin0_2 <= 1.04194265196
-a_x1_sin0_2 + a_x1_2 - 6.28 z_x1_sin0_k_2 <= 0
a_x1_sin0_2 - a_x1_2 + 6.28 z_x1_sin0_k_2 <= 0
-0.01 a_x2_1 - a_x1_1 + a_x1_2 - 6.28 z_q_1 <= 0
0.01 a_x2_1 + 6.28 z_q_1 - a_x1_2 + a_x1_1 <= 0
1.57 z_above_1 - a_x1_1 <= 3.14
1.57 z_above_1 + a_x1_1 <= 3.14
-a_x2_1 - 0.00500001 w_u + a_x2_2 + 8.09240351 z_above_1 - 0.01 a_sin0_1 <= 8.09240351
a_x2_1 + 0.00500001 w_u - a_x2_2 + 8.09240351 z_above_1 + 0.01 a_sin0_1 <= 8.09240351
-z_new_vars_next29 - z_new_vars_next28 - z_above_1 <= -1
-4.71 z_above_1 + 4.71 z_new_vars_next28 + a_x1_1 <= 3.14
4.71 z_new_vars_next29 - 4.71 z_above_1 - a_x1_1 <= 3.14
-0.9999 a_x2_1 - 0.00500001 w_u + a_x2_2 - 8.09200043 z_above_1 - 0.01 a_sin0_1 <= 0
0.9999 a_x2_1 + 0.00500001 w_u - a_x2_2 - 8.09200043 z_above_1 + 0.01 a_sin0_1 <= 0
-a_x1_1 <= 3.14
a_x1_1 <= 3.14
-a_x1_2 <= 3.14
a_x1_2 <= 3.14
-z_new_vars_next30 - z_new_vars_next31 <= -1
-a_x1_sin0_1 <= 3.14
a_x1_sin0_1 + 3.14 z_new_vars_next30 <= 3.14
0.000507214 a_x1_sin0_1 + 0.00318265196 z_new_vars_next30 - a_sin0_1 <= 1.04194265196
-0.000507214 a_x1_sin0_1 + 1.00219585196 z_new_vars_next30 + a_sin0_1 <= 1.04194265196
-a_x1_sin0_1 + 3.14 z_new_vars_next31 <= 3.14
a_x1_sin0_1 <= 3.14
0.000507214 a_x1_sin0_1 - a_sin0_1 + 1.00219585196 z_new_vars_next31 <= 1.04194265196
-0.000507214 a_x1_sin0_1 + a_sin0_1 + 0.00318265196 z_new_vars_next31 <= 1.04194265196
-a_x1_sin0_1 - 6.28 z_x1_sin0_k_1 + a_x1_1 <= 0
a_x1_sin0_1 + 6.28 z_x1_sin0_k_1 - a_x1_1 <= 0
-0.01 x_x2 - x_x1 - 6.28 z_q_0 + a_x1_1 <= 0
0.01 x_x2 + x_x1 + 6.28 z_q_0 - a_x1_1 <= 0
-x_x1 + 1.57 z_above_0 <= 3.14
x_x1 + 1.57 z_above_0 <= 3.14
a_x2_1 - 0.00500001 w_u - 0.01 a_sin0_0 + 8.04620351 z_above_0 - x_x2 <= 8.04620351
-a_x2_1 + 0.00500001 w_u + x_x2 + 8.04620351 z_above_0 + 0.01 a_sin0_0 <= 8.04620351
-z_above_0 - z_new_vars_next32 - z_new_vars_next33 <= -1
-4.71 z_above_0 + x_x1 + 4.71 z_new_vars_next32 <= 3.14
-x_x1 - 4.71 z_above_0 + 4.71 z_new_vars_next33 <= 3.14
a_x2_1 - 0.00500001 w_u - 0.01 a_sin0_0 - 8.04580351 z_above_0 - 0.9999 x_x2 <= 0
-a_x2_1 + 0.00500001 w_u + 0.9999 x_x2 - 8.04580351 z_above_0 + 0.01 a_sin0_0 <= 0
-x_x1 <= 3.14
x_x1 <= 3.14
-a_x1_1 <= 3.14
a_x1_1 <= 3.14
-z_new_vars_next34 - z_new_vars_next35 <= -1
-a_x1_sin0_0 <= 3.14
a_x1_sin0_0 + 3.14 z_new_vars_next34 <= 3.14
0.000507214 a_x1_sin0_0 + 0.00318265196 z_new_vars_next34 - a_sin0_0 <= 1.04194265196
-0.000507214 a_x1_sin0_0 + 1.00219585196 z_new_vars_next34 + a_sin0_0 <= 1.04194265196
-a_x1_sin0_0 + 3.14 z_new_vars_next35 <= 3.14
a_x1_sin0_0 <= 3.14
0.000507214 a_x1_sin0_0 + 1.00219585196 z_new_vars_next35 - a_sin0_0 <= 1.04194265196
-0.000507214 a_x1_sin0_0 + 0.00318265196 z_new_vars_next35 + a_sin0_0 <= 1.04194265196
-a_x1_sin0_0 + x_x1 - 6.28 z_x1_sin0_k_0 <= 0
a_x1_sin0_0 - x_x1 + 6.28 z_x1_sin0_k_0 <= 0
-x_x1 <= 3.454
x_x1 <= 3.454
-x_x2 <= 4
x_x2 <= 4
-w_u <= 1
w_u <= 1
-a_x1_sin0_1 <= 3.14
a_x1_sin0_1 <= 3.14
-a_x1_sin0_2 <= 3.14
a_x1_sin0_2 <= 3.14
-a_x1_sin0_3 <= 3.14
a_x1_sin0_3 <= 3.14
-a_x1_sin0_4 <= 3.14
a_x1_sin0_4 <= 3.14
-a_x1_sin0_5 <= 3.14
a_x1_sin0_5 <= 3.14
-a_x1_sin0_6 <= 3.14
a_x1_sin0_6 <= 3.14
-a_x1_sin0_7 <= 3.14
a_x1_sin0_7 <= 3.14
-a_x1_sin0_8 <= 3.14
a_x1_sin0_8 <= 3.14
-a_x2_1 <= 4.0308
a_x2_1 <= 4.0308
-a_x2_2 <= 4.0462
a_x2_2 <= 4.0462
-a_x2_3 <= 4.0616
a_x2_3 <= 4.0616
-a_x2_4 <= 4.077
a_x2_4 <= 4.077
-a_x2_5 <= 4.0924
a_x2_5 <= 4.0924
-a_x2_6 <= 4.1078
a_x2_6 <= 4.1078
-a_x2_8 <= 4.1386
a_x2_8 <= 4.1386
-z_above <= 0
z_above <= 1
-a_x2_7 <= 4.1232
a_x2_7 <= 4.1232
-z_q <= 1
z_q <= 1
-a_x2_0 <= 4.0154
a_x2_0 <= 4.0154
-a_x1_sin0 <= 3.14
a_x1_sin0 <= 3.14
-z_x1_sin0_k <= 1
z_x1_sin0_k <= 1
-a_x1_0 <= 3.14
a_x1_0 <= 3.14
-a_x1_1 <= 3.14
a_x1_1 <= 3.14
-a_x1_2 <= 3.14
a_x1_2 <= 3.14
-a_x1_3 <= 3.14
a_x1_3 <= 3.14
-a_x1_4 <= 3.14
a_x1_4 <= 3.14
-a_x1_5 <= 3.14
a_x1_5 <= 3.14
-a_x1_6 <= 3.14
a_x1_6 <= 3.14
-a_x1_7 <= 3.14
a_x1_7 <= 3.14
-a_x1_8 <= 3.14
a_x1_8 <= 3.14
-z_q_1 <= 1
z_q_1 <= 1
-z_q_2 <= 1
z_q_2 <= 1
-z_q_3 <= 1
z_q_3 <= 1
-z_q_4 <= 1
z_q_4 <= 1
-z_q_5 <= 1
z_q_5 <= 1
-z_q_6 <= 1
z_q_6 <= 1
-z_q_7 <= 1
z_q_7 <= 1
-z_q_8 <= 1
z_q_8 <= 1
-a_sin0_1 <= 1.04035
a_sin0_1 <= 1.04035
-a_sin0_2 <= 1.04035
a_sin0_2 <= 1.04035
-a_sin0_3 <= 1.04035
a_sin0_3 <= 1.04035
-a_sin0_4 <= 1.04035
a_sin0_4 <= 1.04035
-a_sin0_5 <= 1.04035
a_sin0_5 <= 1.04035
-a_sin0_6 <= 1.04035
a_sin0_6 <= 1.04035
-a_sin0_7 <= 1.04035
a_sin0_7 <= 1.04035
-a_sin0_8 <= 1.04035
a_sin0_8 <= 1.04035
-z_above_0 <= 0
z_above_0 <= 1
-z_above_1 <= 0
z_above_1 <= 1
-z_above_2 <= 0
z_above_2 <= 1
-z_above_3 <= 0
z_above_3 <= 1
-z_q_0 <= 1
z_q_0 <= 1
-z_above_5 <= 0
z_above_5 <= 1
-z_above_6 <= 0
z_above_6 <= 1
-z_above_7 <= 0
z_above_7 <= 1
-z_above_4 <= 0
z_above_4 <= 1
-z_x1_sin0_k_4 <= 1
z_x1_sin0_k_4 <= 1
-z_x1_sin0_k_5 <= 1
z_x1_sin0_k_5 <= 1
-z_x1_sin0_k_6 <= 1
z_x1_sin0_k_6 <= 1
-z_x1_sin0_k_7 <= 1
z_x1_sin0_k_7 <= 1
-z_x1_sin0_k_8 <= 1
z_x1_sin0_k_8 <= 1
-z_x1_sin0_k_3 <= 1
z_x1_sin0_k_3 <= 1
-z_x1_sin0_k_0 <= 1
z_x1_sin0_k_0 <= 1
-z_x1_sin0_k_1 <= 1
z_x1_sin0_k_1 <= 1
-z_above_8 <= 0
z_above_8 <= 1
-a_sin0_0 <= 1.04035
a_sin0_0 <= 1.04035
-a_sin0 <= 1.04035
a_sin0 <= 1.04035
-z_x1_sin0_k_2 <= 1
z_x1_sin0_k_2 <= 1
-a_x1_sin0_0 <= 3.14
a_x1_sin0_0 <= 3.14
Bounds
x_x1 free
x_x1' free
x_x2 free
x_x2' free
a_x1_sin0_1 free
a_x1_sin0_2 free
a_x1_sin0_3 free
a_x1_sin0_4 free
a_x1_sin0_5 free
a_x1_sin0_6 free
a_x1_sin0_7 free
a_x1_sin0_8 free
a_x2_1 free
a_x2_0 free
a_x2_4 free
a_x2_2 free
a_x2_5 free
a_x2_6 free
a_x2_8 free
z_above free
z_q free
w_u free
a_x2_3 free
a_x2_7 free
a_x1_sin0 free
z_x1_sin0_k free
a_x1_0 free
a_x1_1 free
a_x1_2 free
a_x1_3 free
a_x1_4 free
a_x1_5 free
a_x1_6 free
a_x1_7 free
a_x1_8 free
z_q_1 free
z_q_2 free
z_q_3 free
z_q_4 free
z_q_5 free
z_q_6 free
z_q_7 free
z_q_8 free
a_sin0_1 free
a_sin0_2 free
a_sin0_3 free
a_sin0_4 free
a_sin0_5 free
a_sin0_6 free
a_sin0_7 free
a_sin0_8 free
z_above_0 free
z_above_1 free
z_above_2 free
z_above_3 free
z_q_0 free
z_above_5 free
z_above_6 free
z_above_7 free
z_above_4 free
z_x1_sin0_k_4 free
z_x1_sin0_k_5 free
z_x1_sin0_k_6 free
z_x1_sin0_k_7 free
z_x1_sin0_k_8 free
z_x1_sin0_k_0 free
z_x1_sin0_k_1 free
z_x1_sin0_k_3 free
a_sin0_0 free
a_sin0 free
z_x1_sin0_k_2 free
z_above_8 free
a_dx2 free
a_dx1 free
a_x1_sin0_0 free
0 <= z_new_vars_next0 <= 1
0 <= z_new_vars_next1 <= 1
0 <= z_new_vars_next2 <= 1
0 <= z_new_vars_next3 <= 1
0 <= z_new_vars_next4 <= 1
0 <= z_new_vars_next5 <= 1
0 <= z_new_vars_next6 <= 1
0 <= z_new_vars_next7 <= 1
0 <= z_new_vars_next8 <= 1
0 <= z_new_vars_next9 <= 1
0 <= z_new_vars_next10 <= 1
0 <= z_new_vars_next11 <= 1
0 <= z_new_vars_next12 <= 1
0 <= z_new_vars_next13 <= 1
0 <= z_new_vars_next14 <= 1
0 <= z_new_vars_next15 <= 1
0 <= z_new_vars_next16 <= 1
0 <= z_new_vars_next17 <= 1
0 <= z_new_vars_next18 <= 1
0 <= z_new_vars_next19 <= 1
0 <= z_new_vars_next20 <= 1
0 <= z_new_vars_next21 <= 1
0 <= z_new_vars_next22 <= 1
0 <= z_new_vars_next23 <= 1
0 <= z_new_vars_next24 <= 1
0 <= z_new_vars_next25 <= 1
0 <= z_new_vars_next26 <= 1
0 <= z_new_vars_next27 <= 1
0 <= z_new_vars_next28 <= 1
0 <= z_new_vars_next29 <= 1
0 <= z_new_vars_next30 <= 1
0 <= z_new_vars_next31 <= 1
0 <= z_new_vars_next32 <= 1
0 <= z_new_vars_next33 <= 1
0 <= z_new_vars_next34 <= 1
0 <= z_new_vars_next35 <= 1
0 <= z_new_vars_not_safety0 <= 1
0 <= z_new_vars_not_safety1 <= 1
0 <= z_new_vars_not_safety2 <= 1
0 <= z_new_vars_not_safety3 <= 1
Binary
z_above
z_above_0
z_above_1
z_above_2
z_above_3
z_above_5
z_above_6
z_above_7
z_above_4
z_above_8
z_new_vars_next0
z_new_vars_next1
z_new_vars_next2
z_new_vars_next3
z_new_vars_next4
z_new_vars_next5
z_new_vars_next6
z_new_vars_next7
z_new_vars_next8
z_new_vars_next9
z_new_vars_next10
z_new_vars_next11
z_new_vars_next12
z_new_vars_next13
z_new_vars_next14
z_new_vars_next15
z_new_vars_next16
z_new_vars_next17
z_new_vars_next18
z_new_vars_next19
z_new_vars_next20
z_new_vars_next21
z_new_vars_next22
z_new_vars_next23
z_new_vars_next24
z_new_vars_next25
z_new_vars_next26
z_new_vars_next27
z_new_vars_next28
z_new_vars_next29
z_new_vars_next30
z_new_vars_next31
z_new_vars_next32
z_new_vars_next33
z_new_vars_next34
z_new_vars_next35
z_new_vars_not_safety0
z_new_vars_not_safety1
z_new_vars_not_safety2
z_new_vars_not_safety3
General
w_u
z_q
z_x1_sin0_k
z_q_1
z_q_2
z_q_3
z_q_4
z_q_5
z_q_6
z_q_7
z_q_8
z_q_0
z_x1_sin0_k_4
z_x1_sin0_k_5
z_x1_sin0_k_6
z_x1_sin0_k_7
z_x1_sin0_k_8
z_x1_sin0_k_3
z_x1_sin0_k_0
z_x1_sin0_k_1
z_x1_sin0_k_2
End

************Input GOAL LP is:************
Maximize
 obj: + x_x1 + x_x1' + x_x2 + x_x2' + a_x1_sin0_1 + a_x1_sin0_2 + a_x1_sin0_3 + a_x1_sin0_4 + a_x1_sin0_5 + a_x1_sin0_6 + a_x1_sin0_7 + a_x1_sin0_8 + a_x2_1 + a_x2_0 + a_x2_4 + a_x2_2 + a_x2_5 + a_x2_6 + a_x2_8 + z_above + z_q + w_u + a_x2_3 + a_x2_7 + a_x1_sin0 + z_x1_sin0_k + a_x1_0 + a_x1_1 + a_x1_2 + a_x1_3 + a_x1_4 + a_x1_5 + a_x1_6 + a_x1_7 + a_x1_8 + z_q_1 + z_q_2 + z_q_3 + z_q_4 + z_q_5 + z_q_6 + z_q_7 + z_q_8 + a_sin0_1 + a_sin0_2 + a_sin0_3 + a_sin0_4 + a_sin0_5 + a_sin0_6 + a_sin0_7 + a_sin0_8 + z_above_0 + z_above_1 + z_above_2 + z_above_3 + z_q_0 + z_above_5 + z_above_6 + z_above_7 + z_above_4 + z_x1_sin0_k_4 + z_x1_sin0_k_5 + z_x1_sin0_k_6 + z_x1_sin0_k_7 + z_x1_sin0_k_8 + z_x1_sin0_k_0 + z_x1_sin0_k_1 + z_x1_sin0_k_3 + a_sin0_0 + a_sin0 + z_x1_sin0_k_2 + z_above_8 + a_dx2 + a_dx1 + a_x1_sin0_0  + z_new_vars_next0
 + z_new_vars_next1
 + z_new_vars_next2
 + z_new_vars_next3
 + z_new_vars_next4
 + z_new_vars_next5
 + z_new_vars_next6
 + z_new_vars_next7
 + z_new_vars_next8
 + z_new_vars_next9
 + z_new_vars_next10
 + z_new_vars_next11
 + z_new_vars_next12
 + z_new_vars_next13
 + z_new_vars_next14
 + z_new_vars_next15
 + z_new_vars_next16
 + z_new_vars_next17
 + z_new_vars_next18
 + z_new_vars_next19
 + z_new_vars_next20
 + z_new_vars_next21
 + z_new_vars_next22
 + z_new_vars_next23
 + z_new_vars_next24
 + z_new_vars_next25
 + z_new_vars_next26
 + z_new_vars_next27
 + z_new_vars_next28
 + z_new_vars_next29
 + z_new_vars_next30
 + z_new_vars_next31
 + z_new_vars_next32
 + z_new_vars_next33
 + z_new_vars_next34
 + z_new_vars_next35
 + z_new_vars_not_safety0
 + z_new_vars_not_safety1
 + z_new_vars_not_safety2
 + z_new_vars_not_safety3

Subject To
-x_x1 <= 0.1
x_x1 <= 0.1
-x_x2 <= 0.1
x_x2 <= 0.1
Bounds
x_x1 free
x_x1' free
x_x2 free
x_x2' free
a_x1_sin0_1 free
a_x1_sin0_2 free
a_x1_sin0_3 free
a_x1_sin0_4 free
a_x1_sin0_5 free
a_x1_sin0_6 free
a_x1_sin0_7 free
a_x1_sin0_8 free
a_x2_1 free
a_x2_0 free
a_x2_4 free
a_x2_2 free
a_x2_5 free
a_x2_6 free
a_x2_8 free
z_above free
z_q free
w_u free
a_x2_3 free
a_x2_7 free
a_x1_sin0 free
z_x1_sin0_k free
a_x1_0 free
a_x1_1 free
a_x1_2 free
a_x1_3 free
a_x1_4 free
a_x1_5 free
a_x1_6 free
a_x1_7 free
a_x1_8 free
z_q_1 free
z_q_2 free
z_q_3 free
z_q_4 free
z_q_5 free
z_q_6 free
z_q_7 free
z_q_8 free
a_sin0_1 free
a_sin0_2 free
a_sin0_3 free
a_sin0_4 free
a_sin0_5 free
a_sin0_6 free
a_sin0_7 free
a_sin0_8 free
z_above_0 free
z_above_1 free
z_above_2 free
z_above_3 free
z_q_0 free
z_above_5 free
z_above_6 free
z_above_7 free
z_above_4 free
z_x1_sin0_k_4 free
z_x1_sin0_k_5 free
z_x1_sin0_k_6 free
z_x1_sin0_k_7 free
z_x1_sin0_k_8 free
z_x1_sin0_k_0 free
z_x1_sin0_k_1 free
z_x1_sin0_k_3 free
a_sin0_0 free
a_sin0 free
z_x1_sin0_k_2 free
z_above_8 free
a_dx2 free
a_dx1 free
a_x1_sin0_0 free
0 <= z_new_vars_next0 <= 1
0 <= z_new_vars_next1 <= 1
0 <= z_new_vars_next2 <= 1
0 <= z_new_vars_next3 <= 1
0 <= z_new_vars_next4 <= 1
0 <= z_new_vars_next5 <= 1
0 <= z_new_vars_next6 <= 1
0 <= z_new_vars_next7 <= 1
0 <= z_new_vars_next8 <= 1
0 <= z_new_vars_next9 <= 1
0 <= z_new_vars_next10 <= 1
0 <= z_new_vars_next11 <= 1
0 <= z_new_vars_next12 <= 1
0 <= z_new_vars_next13 <= 1
0 <= z_new_vars_next14 <= 1
0 <= z_new_vars_next15 <= 1
0 <= z_new_vars_next16 <= 1
0 <= z_new_vars_next17 <= 1
0 <= z_new_vars_next18 <= 1
0 <= z_new_vars_next19 <= 1
0 <= z_new_vars_next20 <= 1
0 <= z_new_vars_next21 <= 1
0 <= z_new_vars_next22 <= 1
0 <= z_new_vars_next23 <= 1
0 <= z_new_vars_next24 <= 1
0 <= z_new_vars_next25 <= 1
0 <= z_new_vars_next26 <= 1
0 <= z_new_vars_next27 <= 1
0 <= z_new_vars_next28 <= 1
0 <= z_new_vars_next29 <= 1
0 <= z_new_vars_next30 <= 1
0 <= z_new_vars_next31 <= 1
0 <= z_new_vars_next32 <= 1
0 <= z_new_vars_next33 <= 1
0 <= z_new_vars_next34 <= 1
0 <= z_new_vars_next35 <= 1
0 <= z_new_vars_not_safety0 <= 1
0 <= z_new_vars_not_safety1 <= 1
0 <= z_new_vars_not_safety2 <= 1
0 <= z_new_vars_not_safety3 <= 1
Binary
z_above
z_above_0
z_above_1
z_above_2
z_above_3
z_above_5
z_above_6
z_above_7
z_above_4
z_above_8
z_new_vars_next0
z_new_vars_next1
z_new_vars_next2
z_new_vars_next3
z_new_vars_next4
z_new_vars_next5
z_new_vars_next6
z_new_vars_next7
z_new_vars_next8
z_new_vars_next9
z_new_vars_next10
z_new_vars_next11
z_new_vars_next12
z_new_vars_next13
z_new_vars_next14
z_new_vars_next15
z_new_vars_next16
z_new_vars_next17
z_new_vars_next18
z_new_vars_next19
z_new_vars_next20
z_new_vars_next21
z_new_vars_next22
z_new_vars_next23
z_new_vars_next24
z_new_vars_next25
z_new_vars_next26
z_new_vars_next27
z_new_vars_next28
z_new_vars_next29
z_new_vars_next30
z_new_vars_next31
z_new_vars_next32
z_new_vars_next33
z_new_vars_next34
z_new_vars_next35
z_new_vars_not_safety0
z_new_vars_not_safety1
z_new_vars_not_safety2
z_new_vars_not_safety3
General
w_u
z_q
z_x1_sin0_k
z_q_1
z_q_2
z_q_3
z_q_4
z_q_5
z_q_6
z_q_7
z_q_8
z_q_0
z_x1_sin0_k_4
z_x1_sin0_k_5
z_x1_sin0_k_6
z_x1_sin0_k_7
z_x1_sin0_k_8
z_x1_sin0_k_3
z_x1_sin0_k_0
z_x1_sin0_k_1
z_x1_sin0_k_2
End

************Input NOT_SAFETY LP is:************
Maximize
 obj: + x_x1 + x_x1' + x_x2 + x_x2' + a_x1_sin0_1 + a_x1_sin0_2 + a_x1_sin0_3 + a_x1_sin0_4 + a_x1_sin0_5 + a_x1_sin0_6 + a_x1_sin0_7 + a_x1_sin0_8 + a_x2_1 + a_x2_0 + a_x2_4 + a_x2_2 + a_x2_5 + a_x2_6 + a_x2_8 + z_above + z_q + w_u + a_x2_3 + a_x2_7 + a_x1_sin0 + z_x1_sin0_k + a_x1_0 + a_x1_1 + a_x1_2 + a_x1_3 + a_x1_4 + a_x1_5 + a_x1_6 + a_x1_7 + a_x1_8 + z_q_1 + z_q_2 + z_q_3 + z_q_4 + z_q_5 + z_q_6 + z_q_7 + z_q_8 + a_sin0_1 + a_sin0_2 + a_sin0_3 + a_sin0_4 + a_sin0_5 + a_sin0_6 + a_sin0_7 + a_sin0_8 + z_above_0 + z_above_1 + z_above_2 + z_above_3 + z_q_0 + z_above_5 + z_above_6 + z_above_7 + z_above_4 + z_x1_sin0_k_4 + z_x1_sin0_k_5 + z_x1_sin0_k_6 + z_x1_sin0_k_7 + z_x1_sin0_k_8 + z_x1_sin0_k_0 + z_x1_sin0_k_1 + z_x1_sin0_k_3 + a_sin0_0 + a_sin0 + z_x1_sin0_k_2 + z_above_8 + a_dx2 + a_dx1 + a_x1_sin0_0  + z_new_vars_next0
 + z_new_vars_next1
 + z_new_vars_next2
 + z_new_vars_next3
 + z_new_vars_next4
 + z_new_vars_next5
 + z_new_vars_next6
 + z_new_vars_next7
 + z_new_vars_next8
 + z_new_vars_next9
 + z_new_vars_next10
 + z_new_vars_next11
 + z_new_vars_next12
 + z_new_vars_next13
 + z_new_vars_next14
 + z_new_vars_next15
 + z_new_vars_next16
 + z_new_vars_next17
 + z_new_vars_next18
 + z_new_vars_next19
 + z_new_vars_next20
 + z_new_vars_next21
 + z_new_vars_next22
 + z_new_vars_next23
 + z_new_vars_next24
 + z_new_vars_next25
 + z_new_vars_next26
 + z_new_vars_next27
 + z_new_vars_next28
 + z_new_vars_next29
 + z_new_vars_next30
 + z_new_vars_next31
 + z_new_vars_next32
 + z_new_vars_next33
 + z_new_vars_next34
 + z_new_vars_next35
 + z_new_vars_not_safety0
 + z_new_vars_not_safety1
 + z_new_vars_not_safety2
 + z_new_vars_not_safety3

Subject To
-z_new_vars_not_safety1 - z_new_vars_not_safety0 - z_new_vars_not_safety3 - z_new_vars_not_safety2 <= -1
6.594 z_new_vars_not_safety0 + x_x1 <= 3.14
6.594 z_new_vars_not_safety1 - x_x1 <= 3.14
x_x2 + 8.0 z_new_vars_not_safety2 <= 4.0
-x_x2 + 8.0 z_new_vars_not_safety3 <= 4.0
Bounds
x_x1 free
x_x1' free
x_x2 free
x_x2' free
a_x1_sin0_1 free
a_x1_sin0_2 free
a_x1_sin0_3 free
a_x1_sin0_4 free
a_x1_sin0_5 free
a_x1_sin0_6 free
a_x1_sin0_7 free
a_x1_sin0_8 free
a_x2_1 free
a_x2_0 free
a_x2_4 free
a_x2_2 free
a_x2_5 free
a_x2_6 free
a_x2_8 free
z_above free
z_q free
w_u free
a_x2_3 free
a_x2_7 free
a_x1_sin0 free
z_x1_sin0_k free
a_x1_0 free
a_x1_1 free
a_x1_2 free
a_x1_3 free
a_x1_4 free
a_x1_5 free
a_x1_6 free
a_x1_7 free
a_x1_8 free
z_q_1 free
z_q_2 free
z_q_3 free
z_q_4 free
z_q_5 free
z_q_6 free
z_q_7 free
z_q_8 free
a_sin0_1 free
a_sin0_2 free
a_sin0_3 free
a_sin0_4 free
a_sin0_5 free
a_sin0_6 free
a_sin0_7 free
a_sin0_8 free
z_above_0 free
z_above_1 free
z_above_2 free
z_above_3 free
z_q_0 free
z_above_5 free
z_above_6 free
z_above_7 free
z_above_4 free
z_x1_sin0_k_4 free
z_x1_sin0_k_5 free
z_x1_sin0_k_6 free
z_x1_sin0_k_7 free
z_x1_sin0_k_8 free
z_x1_sin0_k_0 free
z_x1_sin0_k_1 free
z_x1_sin0_k_3 free
a_sin0_0 free
a_sin0 free
z_x1_sin0_k_2 free
z_above_8 free
a_dx2 free
a_dx1 free
a_x1_sin0_0 free
0 <= z_new_vars_next0 <= 1
0 <= z_new_vars_next1 <= 1
0 <= z_new_vars_next2 <= 1
0 <= z_new_vars_next3 <= 1
0 <= z_new_vars_next4 <= 1
0 <= z_new_vars_next5 <= 1
0 <= z_new_vars_next6 <= 1
0 <= z_new_vars_next7 <= 1
0 <= z_new_vars_next8 <= 1
0 <= z_new_vars_next9 <= 1
0 <= z_new_vars_next10 <= 1
0 <= z_new_vars_next11 <= 1
0 <= z_new_vars_next12 <= 1
0 <= z_new_vars_next13 <= 1
0 <= z_new_vars_next14 <= 1
0 <= z_new_vars_next15 <= 1
0 <= z_new_vars_next16 <= 1
0 <= z_new_vars_next17 <= 1
0 <= z_new_vars_next18 <= 1
0 <= z_new_vars_next19 <= 1
0 <= z_new_vars_next20 <= 1
0 <= z_new_vars_next21 <= 1
0 <= z_new_vars_next22 <= 1
0 <= z_new_vars_next23 <= 1
0 <= z_new_vars_next24 <= 1
0 <= z_new_vars_next25 <= 1
0 <= z_new_vars_next26 <= 1
0 <= z_new_vars_next27 <= 1
0 <= z_new_vars_next28 <= 1
0 <= z_new_vars_next29 <= 1
0 <= z_new_vars_next30 <= 1
0 <= z_new_vars_next31 <= 1
0 <= z_new_vars_next32 <= 1
0 <= z_new_vars_next33 <= 1
0 <= z_new_vars_next34 <= 1
0 <= z_new_vars_next35 <= 1
0 <= z_new_vars_not_safety0 <= 1
0 <= z_new_vars_not_safety1 <= 1
0 <= z_new_vars_not_safety2 <= 1
0 <= z_new_vars_not_safety3 <= 1
Binary
z_above
z_above_0
z_above_1
z_above_2
z_above_3
z_above_5
z_above_6
z_above_7
z_above_4
z_above_8
z_new_vars_next0
z_new_vars_next1
z_new_vars_next2
z_new_vars_next3
z_new_vars_next4
z_new_vars_next5
z_new_vars_next6
z_new_vars_next7
z_new_vars_next8
z_new_vars_next9
z_new_vars_next10
z_new_vars_next11
z_new_vars_next12
z_new_vars_next13
z_new_vars_next14
z_new_vars_next15
z_new_vars_next16
z_new_vars_next17
z_new_vars_next18
z_new_vars_next19
z_new_vars_next20
z_new_vars_next21
z_new_vars_next22
z_new_vars_next23
z_new_vars_next24
z_new_vars_next25
z_new_vars_next26
z_new_vars_next27
z_new_vars_next28
z_new_vars_next29
z_new_vars_next30
z_new_vars_next31
z_new_vars_next32
z_new_vars_next33
z_new_vars_next34
z_new_vars_next35
z_new_vars_not_safety0
z_new_vars_not_safety1
z_new_vars_not_safety2
z_new_vars_not_safety3
General
w_u
z_q
z_x1_sin0_k
z_q_1
z_q_2
z_q_3
z_q_4
z_q_5
z_q_6
z_q_7
z_q_8
z_q_0
z_x1_sin0_k_4
z_x1_sin0_k_5
z_x1_sin0_k_6
z_x1_sin0_k_7
z_x1_sin0_k_8
z_x1_sin0_k_3
z_x1_sin0_k_0
z_x1_sin0_k_1
z_x1_sin0_k_2
End

************ Rectangular goal abstraction generation ************
Command line as entered for process 13105: mj2elp -f /tmp//goal.file_rect.mj -o /tmp//goal.file_rect.elp -v 3 
Current options:
	mj2elp_get_options_total_memory_lim : 2147483648
	mj2elp_get_options_math_input_file : /tmp//goal.file_rect.mj
	mj2elp_get_options_elp_output_file : /tmp//goal.file_rect.elp
	mj2elp_get_options_path : mj2elp
	mj2elp_get_options_debug : 0
	mj2elp_get_options_verbose : 3
	mj2elp_get_options_exec_flags : 7 
	Meaning that:
		generate output with unary and binary operators only
		associate towards right
		generate output with commutative operators only
Execution time and memory used by Mj2Elp at after MATH parsing: 4.000000e-02 seconds, 54018048 bytes of memory usage and 53780 kB of memory peak
Execution time and memory used by Mj2Elp at after ELP writing: 4.000000e-02 seconds, 54018048 bytes of memory usage and 53780 kB of memory peak
Resulting ELP file is not binary
Resulting ELP file is commutative
Making ELP file binary...done
Execution time and memory used by Mj2Elp at after making ELP binary: 4.000000e-02 seconds, 54018048 bytes of memory usage and 53780 kB of memory peak
Execution time and memory used by Mj2Elp at end of computation: 4.000000e-02 seconds, 54018048 bytes of memory usage and 53780 kB of memory peak
Command line as entered for process 13105: elp2obdd -f /tmp//goal.file_rect.elp -o /tmp//goal.file_rect.blif -v 3 -std_dfs -no_sub_leaf -no_add -no_reorder -gamma x_x1:9:x_x2:9: 
Current elp2obdd_options:
	elp2obdd_get_options_total_memory_lim : 2147483648
	elp2obdd_get_options_input_file : /tmp//goal.file_rect.elp
	elp2obdd_get_options_dir_tmp : /tmp/
	elp2obdd_get_options_atoms_basename : atom
	elp2obdd_get_options_gamma_string : x_x1:9:x_x2:9:
	elp2obdd_get_options_actions_string : *NULL*
	elp2obdd_get_options_debug : 0
	elp2obdd_get_options_num_procs : 1
	elp2obdd_get_options_verbose : 3
	elp2obdd_get_options_num_procs : 1
	elp2obdd_get_options_exec_flags : 168 0 
	Meaning that:
		do not use interleaved ordering
		do not use add in intermediate computations
		do not use sub_leaf algorithm
		use standard evaluation algorithm
		do not reorder atom ELP files when computing leaves in different processes
		consider primed variables as terminating with "prime"
		do not kill and start again after each leaf when computing leaves in different processes
		recompute already computed atom BLIF files in parallel evaluation
		do not detect duplicated atom files in parallel evaluation
Execution time and memory used by Elp2Obdd at before ELP parsing: 4.000000e-02 seconds, 63991808 bytes of memory usage and 62492 kB of memory peak
Parsing /tmp//goal.file_rect.elp... done
Execution time and memory used by Elp2Obdd at after ELP parsing: 4.000000e-02 seconds, 63991808 bytes of memory usage and 62496 kB of memory peak
Execution time and memory used by Elp2Obdd at before OBDD building: 4.000000e-02 seconds, 63991808 bytes of memory usage and 62496 kB of memory peak
Starting standard DFS on ELP
Evaluating atom 1 of 4, corresponding to ELP subtree
	(>= x_x1 248)
Evaluating atom 2 of 4, corresponding to ELP subtree
	(<= x_x1 263)
Evaluating atom 3 of 4, corresponding to ELP subtree
	(>= x_x2 249)
Evaluating atom 4 of 4, corresponding to ELP subtree
	(<= x_x2 262)
Execution time and memory used by Elp2Obdd at after OBDD building: 4.000000e-02 seconds, 63991808 bytes of memory usage and 62496 kB of memory peak
Writing BLIF file /tmp//goal.file_rect.blif... done
Statistics:
	time spent in computing 4 atoms: 0 (total), 0 (max), 0 (min), 0 (avg)
		0 (variance), 0 (variance, unbiased)
Execution time and memory used by Elp2Obdd at last statement: 5.000000e-02 seconds, 64065536 bytes of memory usage and 62564 kB of memory peak
Execution time and memory used by QKS at end of rectangular goal quantization: 5.000000e-02 seconds, 64065536 bytes of memory usage and 62568 kB of memory peak

************ Rectangular init abstraction generation ************
Command line as entered for process 13105: mj2elp -f /tmp//init.file_rect.mj -o /tmp//init.file_rect.elp -v 3 
Current options:
	mj2elp_get_options_total_memory_lim : 2147483648
	mj2elp_get_options_math_input_file : /tmp//init.file_rect.mj
	mj2elp_get_options_elp_output_file : /tmp//init.file_rect.elp
	mj2elp_get_options_path : mj2elp
	mj2elp_get_options_debug : 0
	mj2elp_get_options_verbose : 3
	mj2elp_get_options_exec_flags : 7 
	Meaning that:
		generate output with unary and binary operators only
		associate towards right
		generate output with commutative operators only
Execution time and memory used by Mj2Elp at after MATH parsing: 5.000000e-02 seconds, 64065536 bytes of memory usage and 62568 kB of memory peak
Execution time and memory used by Mj2Elp at after ELP writing: 5.000000e-02 seconds, 64065536 bytes of memory usage and 62568 kB of memory peak
Resulting ELP file is not binary
Resulting ELP file is commutative
Making ELP file binary...done
Execution time and memory used by Mj2Elp at after making ELP binary: 5.000000e-02 seconds, 64065536 bytes of memory usage and 62568 kB of memory peak
Execution time and memory used by Mj2Elp at end of computation: 5.000000e-02 seconds, 64065536 bytes of memory usage and 62568 kB of memory peak
Command line as entered for process 13105: elp2obdd -f /tmp//init.file_rect.elp -o /tmp//init.file_rect.blif -v 3 -std_dfs -no_sub_leaf -no_add -no_reorder -gamma x_x1:9:x_x2:9: 
Current elp2obdd_options:
	elp2obdd_get_options_total_memory_lim : 2147483648
	elp2obdd_get_options_input_file : /tmp//init.file_rect.elp
	elp2obdd_get_options_dir_tmp : /tmp/
	elp2obdd_get_options_atoms_basename : atom
	elp2obdd_get_options_gamma_string : x_x1:9:x_x2:9:
	elp2obdd_get_options_actions_string : *NULL*
	elp2obdd_get_options_debug : 0
	elp2obdd_get_options_num_procs : 1
	elp2obdd_get_options_verbose : 3
	elp2obdd_get_options_num_procs : 1
	elp2obdd_get_options_exec_flags : 168 0 
	Meaning that:
		do not use interleaved ordering
		do not use add in intermediate computations
		do not use sub_leaf algorithm
		use standard evaluation algorithm
		do not reorder atom ELP files when computing leaves in different processes
		consider primed variables as terminating with "prime"
		do not kill and start again after each leaf when computing leaves in different processes
		recompute already computed atom BLIF files in parallel evaluation
		do not detect duplicated atom files in parallel evaluation
Execution time and memory used by Elp2Obdd at before ELP parsing: 5.000000e-02 seconds, 74027008 bytes of memory usage and 72292 kB of memory peak
Parsing /tmp//init.file_rect.elp... done
Execution time and memory used by Elp2Obdd at after ELP parsing: 5.000000e-02 seconds, 74027008 bytes of memory usage and 72296 kB of memory peak
Execution time and memory used by Elp2Obdd at before OBDD building: 5.000000e-02 seconds, 74027008 bytes of memory usage and 72296 kB of memory peak
Starting standard DFS on ELP
Evaluating atom 1 of 4, corresponding to ELP subtree
	(>= x_x1 0)
Evaluating atom 2 of 4, corresponding to ELP subtree
	(<= x_x1 511)
Evaluating atom 3 of 4, corresponding to ELP subtree
	(>= x_x2 0)
Evaluating atom 4 of 4, corresponding to ELP subtree
	(<= x_x2 511)
Execution time and memory used by Elp2Obdd at after OBDD building: 5.000000e-02 seconds, 74027008 bytes of memory usage and 72296 kB of memory peak
Writing BLIF file /tmp//init.file_rect.blif... done
Statistics:
	time spent in computing 4 atoms: 0 (total), 0 (max), 0 (min), 0 (avg)
		0 (variance), 0 (variance, unbiased)
Execution time and memory used by Elp2Obdd at last statement: 5.000000e-02 seconds, 74027008 bytes of memory usage and 72296 kB of memory peak
Execution time and memory used by QKS at end of rectangular init quantization: 5.000000e-02 seconds, 74027008 bytes of memory usage and 72296 kB of memory peak

************ On-the-fly strong controller generation ************
Execution time and memory used by QKS at begin of on the fly strong controller computation: 5.000000e-02 seconds, 74027008 bytes of memory usage and 72296 kB of memory peak
Execution time and memory used by QKS at 0.10% of on the fly strong controller computation, iteration 1: 1.756690e+03 seconds, 78180352 bytes of memory usage and 76352 kB of memory peak
Execution time and memory used by QKS at 0.15% of on the fly strong controller computation, iteration 1: 2.357420e+03 seconds, 78180352 bytes of memory usage and 76352 kB of memory peak
Execution time and memory used by QKS at 0.20% of on the fly strong controller computation, iteration 1: 3.043770e+03 seconds, 78180352 bytes of memory usage and 76352 kB of memory peak
Execution time and memory used by QKS at End of on the fly strong controller computation: 3.664010e+03 seconds, 78180352 bytes of memory usage and 76352 kB of memory peak
	6 outer iterations performed.
Statistics on actions nondeterminism (variable ordering is: w_u)
	Each entry for actions a is of type n:m, meaning that there are m states s s.t. a lead from s to n different states (cases for which m = 0 are skipped)
Action -1 :
	16:198 17:120 18:88 19:44 20:81 21:90 22:34 23:1 24:4 25:5 26:5 27:3 28:3 
Action 0 :
	15:218 16:152 17:20 18:30 19:82 20:146 22:6 23:6 25:8 26:2 
Action 1 :
	16:198 17:120 18:88 19:44 20:80 21:91 22:34 23:1 24:4 25:5 26:5 27:3 28:3 
Statistics:
	MILP MILP_WALK_K_STEPS called 93186 times, spending time 2710.89 (total), 25.73 (max), 0 (min), 0.0290912 (avg)
		0.0153941 (variance), 0.0153942 (variance, unbiased)
	MILP MILP_WALK_K_STEPS_IN_ITSELF called 170 times, spending time 3.86 (total), 1.18 (max), 0 (min), 0.0227059 (avg)
		0.0101747 (variance), 0.0102345 (variance, unbiased)
	MILP MILP_MIN_X called 6676 times, spending time 228.63 (total), 1.42 (max), 0 (min), 0.0342466 (avg)
		0.00557964 (variance), 0.00558048 (variance, unbiased)
	MILP MILP_MAX_X called 6676 times, spending time 513.59 (total), 3.48 (max), 0 (min), 0.0769308 (avg)
		0.0250083 (variance), 0.0250121 (variance, unbiased)
	MILP MILP_MIN_X_XPRIME called 5172 times, spending time 92.39 (total), 0.55 (max), 0 (min), 0.0178635 (avg)
		0.00120058 (variance), 0.00120081 (variance, unbiased)
	MILP MILP_MAY_GO_OUT called 2022 times, spending time 82.65 (total), 0.61 (max), 0 (min), 0.0408754 (avg)
		0.00374435 (variance), 0.0037462 (variance, unbiased)
Execution time and memory used by QKS at end of state space generation: 3.664010e+03 seconds, 78180352 bytes of memory usage and 76352 kB of memory peak
Generated state space details: 2.621440e+05 init states, 2.240000e+02 goal states, 3.643300e+04 transitions, 1.640000e+02 loops, 0.000000e+00 avoided loops
Generating controllable region...
... done
Execution time and memory used by QKS at begin of control software generation: 3.664010e+03 seconds, 78180352 bytes of memory usage and 76352 kB of memory peak
Generating control software actual code...
	number of nodes of 1-th OBDD: 75
	number of nodes of 2-th OBDD: 69
	number of nodes (shared counted only once) of final OBDD: 136
	WCET for strong mgo controller is 36*T_B
... done
Execution time and memory used by QKS at end of controller files generation: 3.664010e+03 seconds, 78180352 bytes of memory usage and 76356 kB of memory peak
Strong controller search NOT FOUND
Execution time and memory used by QKS at end of execution: 3.664010e+03 seconds, 75538432 bytes of memory usage and 76356 kB of memory peak
