set terminal jpeg
set output "ctrl_reg.exists_strong_ctrl.gnuplot.jpg"
unset key
set xlabel "x_x1"
set xrange [-3.454000:3.454000]
set ylabel "x_x2"
set yrange [-4.000000:4.000000]
#set grid
set object rectangle from -3.143680 , -4.000000 to -2.496055 , 4.000000 fs solid 0.3 noborder fc rgb "#79F3A1"
set object rectangle from -2.496055 , -3.984375 to -2.226211 , 4.000000 fs solid 0.3 noborder fc rgb "#79F3A1"
set object rectangle from -2.226211 , -3.968750 to -2.145258 , 4.000000 fs solid 0.3 noborder fc rgb "#79F3A1"
set object rectangle from -2.145258 , -3.953125 to -1.956367 , 4.000000 fs solid 0.3 noborder fc rgb "#79F3A1"
set object rectangle from -1.956367 , -3.937500 to -1.875414 , 4.000000 fs solid 0.3 noborder fc rgb "#79F3A1"
set object rectangle from -1.875414 , -3.921875 to -1.794461 , 4.000000 fs solid 0.3 noborder fc rgb "#79F3A1"
set object rectangle from -1.794461 , -3.906250 to -1.686523 , 4.000000 fs solid 0.3 noborder fc rgb "#79F3A1"
set object rectangle from -1.686523 , -3.890625 to -1.605570 , 4.000000 fs solid 0.3 noborder fc rgb "#79F3A1"
set object rectangle from -1.605570 , -3.875000 to -1.538109 , 4.000000 fs solid 0.3 noborder fc rgb "#79F3A1"
set object rectangle from -1.538109 , -3.859375 to -1.457156 , 4.000000 fs solid 0.3 noborder fc rgb "#79F3A1"
set object rectangle from -1.457156 , -3.843750 to -1.349219 , 4.000000 fs solid 0.3 noborder fc rgb "#79F3A1"
set object rectangle from -1.349219 , -3.828125 to -1.268266 , 4.000000 fs solid 0.3 noborder fc rgb "#79F3A1"
set object rectangle from -1.268266 , -3.812500 to -1.214297 , 4.000000 fs solid 0.3 noborder fc rgb "#79F3A1"
set object rectangle from -1.214297 , -3.812500 to -1.200805 , 3.984375 fs solid 0.3 noborder fc rgb "#79F3A1"
set object rectangle from -1.200805 , -3.796875 to -1.187313 , 3.968750 fs solid 0.3 noborder fc rgb "#79F3A1"
set object rectangle from -1.187312 , -3.796875 to -1.133344 , 3.968750 fs solid 0.3 noborder fc rgb "#79F3A1"
set object rectangle from -1.133344 , -3.796875 to -1.119852 , 3.953125 fs solid 0.3 noborder fc rgb "#79F3A1"
set object rectangle from -1.119852 , -3.781250 to -1.079375 , 3.953125 fs solid 0.3 noborder fc rgb "#79F3A1"
set object rectangle from -1.079375 , -3.796875 to -1.065883 , 3.953125 fs solid 0.3 noborder fc rgb "#79F3A1"
set object rectangle from -1.065883 , -3.796875 to -1.052391 , 3.937500 fs solid 0.3 noborder fc rgb "#79F3A1"
set object rectangle from -1.052391 , -3.796875 to -1.011914 , 3.921875 fs solid 0.3 noborder fc rgb "#79F3A1"
set object rectangle from -1.011914 , -3.781250 to -0.971438 , 3.921875 fs solid 0.3 noborder fc rgb "#79F3A1"
set object rectangle from -0.971437 , -3.781250 to -0.930961 , 3.906250 fs solid 0.3 noborder fc rgb "#79F3A1"
set object rectangle from -0.930961 , -3.765625 to -0.863500 , 3.906250 fs solid 0.3 noborder fc rgb "#79F3A1"
set object rectangle from -0.863500 , -3.750000 to -0.850008 , 3.906250 fs solid 0.3 noborder fc rgb "#79F3A1"
set object rectangle from -0.850008 , -3.750000 to -0.836516 , 3.890625 fs solid 0.3 noborder fc rgb "#79F3A1"
set object rectangle from -0.836516 , -3.750000 to -0.809531 , 3.875000 fs solid 0.3 noborder fc rgb "#79F3A1"
set object rectangle from -0.809531 , -3.765625 to -0.782547 , 3.875000 fs solid 0.3 noborder fc rgb "#79F3A1"
set object rectangle from -0.782547 , -3.750000 to -0.769055 , 3.875000 fs solid 0.3 noborder fc rgb "#79F3A1"
set object rectangle from -0.769055 , -3.750000 to -0.755563 , 3.859375 fs solid 0.3 noborder fc rgb "#79F3A1"
set object rectangle from -0.755562 , -3.750000 to -0.728578 , 3.859375 fs solid 0.3 noborder fc rgb "#79F3A1"
set object rectangle from -0.728578 , -3.765625 to -0.701594 , 3.859375 fs solid 0.3 noborder fc rgb "#79F3A1"
set object rectangle from -0.701594 , -3.765625 to -0.674609 , 3.843750 fs solid 0.3 noborder fc rgb "#79F3A1"
set object rectangle from -0.674609 , -3.750000 to -0.620641 , 3.843750 fs solid 0.3 noborder fc rgb "#79F3A1"
set object rectangle from -0.620641 , -3.750000 to -0.593656 , 3.828125 fs solid 0.3 noborder fc rgb "#79F3A1"
set object rectangle from -0.593656 , -3.734375 to -0.539688 , 3.828125 fs solid 0.3 noborder fc rgb "#79F3A1"
set object rectangle from -0.539687 , -3.734375 to -0.499211 , 3.828125 fs solid 0.3 noborder fc rgb "#79F3A1"
set object rectangle from -0.499211 , -3.734375 to -0.485719 , 3.812500 fs solid 0.3 noborder fc rgb "#79F3A1"
set object rectangle from -0.485719 , -3.734375 to -0.377781 , 3.796875 fs solid 0.3 noborder fc rgb "#79F3A1"
set object rectangle from -0.377781 , -3.750000 to -0.350797 , 3.796875 fs solid 0.3 noborder fc rgb "#79F3A1"
set object rectangle from -0.350797 , -3.734375 to -0.323813 , 3.781250 fs solid 0.3 noborder fc rgb "#79F3A1"
set object rectangle from -0.323812 , -3.734375 to -0.269844 , 3.781250 fs solid 0.3 noborder fc rgb "#79F3A1"
set object rectangle from -0.269844 , -3.734375 to -0.134922 , 3.765625 fs solid 0.3 noborder fc rgb "#79F3A1"
set object rectangle from -0.134922 , -3.734375 to -0.107938 , 3.750000 fs solid 0.3 noborder fc rgb "#79F3A1"
set object rectangle from -0.107937 , -3.734375 to -0.040477 , 3.750000 fs solid 0.3 noborder fc rgb "#79F3A1"
set object rectangle from -0.040477 , -3.750000 to -0.026984 , 3.750000 fs solid 0.3 noborder fc rgb "#79F3A1"
set object rectangle from -0.026984 , -3.734375 to 0.000000 , 3.750000 fs solid 0.3 noborder fc rgb "#79F3A1"
set object rectangle from 0.000000 , -3.750000 to 0.026984 , 3.734375 fs solid 0.3 noborder fc rgb "#79F3A1"
set object rectangle from 0.026984 , -3.750000 to 0.040477 , 3.750000 fs solid 0.3 noborder fc rgb "#79F3A1"
set object rectangle from 0.040477 , -3.750000 to 0.134922 , 3.734375 fs solid 0.3 noborder fc rgb "#79F3A1"
set object rectangle from 0.134922 , -3.765625 to 0.269844 , 3.734375 fs solid 0.3 noborder fc rgb "#79F3A1"
set object rectangle from 0.269844 , -3.781250 to 0.323813 , 3.734375 fs solid 0.3 noborder fc rgb "#79F3A1"
set object rectangle from 0.323812 , -3.781250 to 0.350797 , 3.734375 fs solid 0.3 noborder fc rgb "#79F3A1"
set object rectangle from 0.350797 , -3.796875 to 0.377781 , 3.750000 fs solid 0.3 noborder fc rgb "#79F3A1"
set object rectangle from 0.377781 , -3.796875 to 0.485719 , 3.734375 fs solid 0.3 noborder fc rgb "#79F3A1"
set object rectangle from 0.485719 , -3.812500 to 0.499211 , 3.734375 fs solid 0.3 noborder fc rgb "#79F3A1"
set object rectangle from 0.499211 , -3.828125 to 0.539688 , 3.734375 fs solid 0.3 noborder fc rgb "#79F3A1"
set object rectangle from 0.539687 , -3.828125 to 0.593656 , 3.734375 fs solid 0.3 noborder fc rgb "#79F3A1"
set object rectangle from 0.593656 , -3.828125 to 0.620641 , 3.750000 fs solid 0.3 noborder fc rgb "#79F3A1"
set object rectangle from 0.620641 , -3.843750 to 0.674609 , 3.750000 fs solid 0.3 noborder fc rgb "#79F3A1"
set object rectangle from 0.674609 , -3.843750 to 0.701594 , 3.765625 fs solid 0.3 noborder fc rgb "#79F3A1"
set object rectangle from 0.701594 , -3.859375 to 0.728578 , 3.765625 fs solid 0.3 noborder fc rgb "#79F3A1"
set object rectangle from 0.728578 , -3.859375 to 0.755562 , 3.750000 fs solid 0.3 noborder fc rgb "#79F3A1"
set object rectangle from 0.755563 , -3.859375 to 0.769055 , 3.750000 fs solid 0.3 noborder fc rgb "#79F3A1"
set object rectangle from 0.769055 , -3.875000 to 0.782547 , 3.750000 fs solid 0.3 noborder fc rgb "#79F3A1"
set object rectangle from 0.782547 , -3.875000 to 0.809531 , 3.765625 fs solid 0.3 noborder fc rgb "#79F3A1"
set object rectangle from 0.809531 , -3.875000 to 0.836516 , 3.750000 fs solid 0.3 noborder fc rgb "#79F3A1"
set object rectangle from 0.836516 , -3.890625 to 0.850008 , 3.750000 fs solid 0.3 noborder fc rgb "#79F3A1"
set object rectangle from 0.850008 , -3.906250 to 0.863500 , 3.750000 fs solid 0.3 noborder fc rgb "#79F3A1"
set object rectangle from 0.863500 , -3.906250 to 0.930961 , 3.765625 fs solid 0.3 noborder fc rgb "#79F3A1"
set object rectangle from 0.930961 , -3.906250 to 0.971438 , 3.781250 fs solid 0.3 noborder fc rgb "#79F3A1"
set object rectangle from 0.971437 , -3.921875 to 1.011914 , 3.781250 fs solid 0.3 noborder fc rgb "#79F3A1"
set object rectangle from 1.011914 , -3.921875 to 1.052391 , 3.796875 fs solid 0.3 noborder fc rgb "#79F3A1"
set object rectangle from 1.052391 , -3.937500 to 1.065883 , 3.796875 fs solid 0.3 noborder fc rgb "#79F3A1"
set object rectangle from 1.065883 , -3.953125 to 1.079375 , 3.796875 fs solid 0.3 noborder fc rgb "#79F3A1"
set object rectangle from 1.079375 , -3.953125 to 1.119852 , 3.781250 fs solid 0.3 noborder fc rgb "#79F3A1"
set object rectangle from 1.119852 , -3.953125 to 1.133344 , 3.796875 fs solid 0.3 noborder fc rgb "#79F3A1"
set object rectangle from 1.133344 , -3.968750 to 1.187312 , 3.796875 fs solid 0.3 noborder fc rgb "#79F3A1"
set object rectangle from 1.187313 , -3.968750 to 1.200805 , 3.796875 fs solid 0.3 noborder fc rgb "#79F3A1"
set object rectangle from 1.200805 , -3.984375 to 1.214297 , 3.812500 fs solid 0.3 noborder fc rgb "#79F3A1"
set object rectangle from 1.214297 , -4.000000 to 1.268266 , 3.812500 fs solid 0.3 noborder fc rgb "#79F3A1"
set object rectangle from 1.268266 , -4.000000 to 1.349219 , 3.828125 fs solid 0.3 noborder fc rgb "#79F3A1"
set object rectangle from 1.349219 , -4.000000 to 1.457156 , 3.843750 fs solid 0.3 noborder fc rgb "#79F3A1"
set object rectangle from 1.457156 , -4.000000 to 1.538109 , 3.859375 fs solid 0.3 noborder fc rgb "#79F3A1"
set object rectangle from 1.538109 , -4.000000 to 1.605570 , 3.875000 fs solid 0.3 noborder fc rgb "#79F3A1"
set object rectangle from 1.605570 , -4.000000 to 1.619062 , 3.890625 fs solid 0.3 noborder fc rgb "#79F3A1"
set object rectangle from 1.619063 , -4.000000 to 1.686523 , 3.890625 fs solid 0.3 noborder fc rgb "#79F3A1"
set object rectangle from 1.686523 , -4.000000 to 1.794461 , 3.906250 fs solid 0.3 noborder fc rgb "#79F3A1"
set object rectangle from 1.794461 , -4.000000 to 1.875414 , 3.921875 fs solid 0.3 noborder fc rgb "#79F3A1"
set object rectangle from 1.875414 , -4.000000 to 1.956367 , 3.937500 fs solid 0.3 noborder fc rgb "#79F3A1"
set object rectangle from 1.956367 , -4.000000 to 2.145258 , 3.953125 fs solid 0.3 noborder fc rgb "#79F3A1"
set object rectangle from 2.145258 , -4.000000 to 2.226211 , 3.968750 fs solid 0.3 noborder fc rgb "#79F3A1"
set object rectangle from 2.226211 , -4.000000 to 2.496055 , 3.984375 fs solid 0.3 noborder fc rgb "#79F3A1"
set object rectangle from 2.496055 , -4.000000 to 3.143680 , 4.000000 fs solid 0.3 noborder fc rgb "#79F3A1" 
plot -4.000000, 4.000000
