-4 <= x_x2 <= 4
-3.14 <= x_x1 <= 3.14
-4.15403 <= x_x2' <= 4.15403
-3.14 <= x_x1' <= 3.14
-1 <= w_u <= 1
-1 <= z_q <= 1
-1 <= z_x1_sin0_k <= 1
-3.14 <= a_x1_sin0 <= 3.14
-1.08026 <= a_sin0 <= 1.08026
