-4 <= x_x2 <= 4
-3.14 <= x_x1 <= 3.14
-3.14 <= x_x1' <= 3.14
-4.173 <= x_x2' <= 4.173
-1 <= w_u <= 1
-4.1557 <= a_x2_8 <= 4.1557
-3.14 <= a_x1_8 <= 3.14
-1 <= z_q_8 <= 1
0 <= z_above_8 <= 1
-1 <= z_x1_sin0_k_8 <= 1
-3.14 <= a_x1_sin0_8 <= 3.14
-1.2304 <= a_sin0_8 <= 1.2304
-3.14 <= a_x1_7 <= 3.14
-4.1384 <= a_x2_7 <= 4.1384
-1 <= z_q_7 <= 1
0 <= z_above_7 <= 1
-1 <= z_x1_sin0_k_7 <= 1
-3.14 <= a_x1_sin0_7 <= 3.14
-1.2304 <= a_sin0_7 <= 1.2304
-4.1211 <= a_x2_6 <= 4.1211
-3.14 <= a_x1_6 <= 3.14
-1 <= z_q_6 <= 1
0 <= z_above_6 <= 1
-1 <= z_x1_sin0_k_6 <= 1
-3.14 <= a_x1_sin0_6 <= 3.14
-1.2304 <= a_sin0_6 <= 1.2304
-3.14 <= a_x1_5 <= 3.14
-4.1038 <= a_x2_5 <= 4.1038
-1 <= z_q_5 <= 1
0 <= z_above_5 <= 1
-1 <= z_x1_sin0_k_5 <= 1
-3.14 <= a_x1_sin0_5 <= 3.14
-1.2304 <= a_sin0_5 <= 1.2304
-4.0865 <= a_x2_4 <= 4.0865
-3.14 <= a_x1_4 <= 3.14
-1 <= z_q_4 <= 1
0 <= z_above_4 <= 1
-1 <= z_x1_sin0_k_4 <= 1
-3.14 <= a_x1_sin0_4 <= 3.14
-1.2304 <= a_sin0_4 <= 1.2304
-3.14 <= a_x1_3 <= 3.14
-4.0692 <= a_x2_3 <= 4.0692
-1 <= z_q_3 <= 1
0 <= z_above_3 <= 1
-1 <= z_x1_sin0_k_3 <= 1
-3.14 <= a_x1_sin0_3 <= 3.14
-1.2304 <= a_sin0_3 <= 1.2304
-4.0519 <= a_x2_2 <= 4.0519
-3.14 <= a_x1_2 <= 3.14
-1 <= z_q_2 <= 1
0 <= z_above_2 <= 1
-1 <= z_x1_sin0_k_2 <= 1
-3.14 <= a_x1_sin0_2 <= 3.14
-1.2304 <= a_sin0_2 <= 1.2304
-3.14 <= a_x1_1 <= 3.14
-4.0346 <= a_x2_1 <= 4.0346
-1 <= z_q_1 <= 1
0 <= z_above_1 <= 1
-1 <= z_x1_sin0_k_1 <= 1
-3.14 <= a_x1_sin0_1 <= 3.14
-1.2304 <= a_sin0_1 <= 1.2304
-4.0173 <= a_x2_0 <= 4.0173
-3.14 <= a_x1_0 <= 3.14
-1 <= z_q_0 <= 1
0 <= z_above_0 <= 1
-1 <= z_x1_sin0_k_0 <= 1
-3.14 <= a_x1_sin0_0 <= 3.14
-1.2304 <= a_sin0_0 <= 1.2304
-1 <= z_q <= 1
0 <= z_above <= 1
-1 <= z_x1_sin0_k <= 1
-3.14 <= a_x1_sin0 <= 3.14
-1.2304 <= a_sin0 <= 1.2304
