set terminal jpeg
set output "ctrl_reg.exists_strong_ctrl.gnuplot.jpg"
unset key
set xlabel "x_x1"
set xrange [-3.454000:3.454000]
set ylabel "x_x2"
set yrange [-4.000000:4.000000]
#set grid
set object rectangle from -3.143680 , -4.000000 to -2.428594 , 4.000000 fs solid 0.3 noborder fc rgb "#79F3A1"
set object rectangle from -2.428594 , -3.984375 to -2.239703 , 4.000000 fs solid 0.3 noborder fc rgb "#79F3A1"
set object rectangle from -2.239703 , -3.968750 to -2.077797 , 4.000000 fs solid 0.3 noborder fc rgb "#79F3A1"
set object rectangle from -2.077797 , -3.953125 to -1.942875 , 4.000000 fs solid 0.3 noborder fc rgb "#79F3A1"
set object rectangle from -1.942875 , -3.937500 to -1.888906 , 4.000000 fs solid 0.3 noborder fc rgb "#79F3A1"
set object rectangle from -1.888906 , -3.921875 to -1.727000 , 4.000000 fs solid 0.3 noborder fc rgb "#79F3A1"
set object rectangle from -1.727000 , -3.906250 to -1.592078 , 4.000000 fs solid 0.3 noborder fc rgb "#79F3A1"
set object rectangle from -1.592078 , -3.890625 to -1.538109 , 4.000000 fs solid 0.3 noborder fc rgb "#79F3A1"
set object rectangle from -1.538109 , -3.875000 to -1.389695 , 4.000000 fs solid 0.3 noborder fc rgb "#79F3A1"
set object rectangle from -1.389695 , -3.859375 to -1.254773 , 4.000000 fs solid 0.3 noborder fc rgb "#79F3A1"
set object rectangle from -1.254773 , -3.843750 to -1.200805 , 4.000000 fs solid 0.3 noborder fc rgb "#79F3A1"
set object rectangle from -1.200805 , -3.828125 to -1.187313 , 4.000000 fs solid 0.3 noborder fc rgb "#79F3A1"
set object rectangle from -1.187312 , -3.828125 to -1.052391 , 4.000000 fs solid 0.3 noborder fc rgb "#79F3A1"
set object rectangle from -1.052391 , -3.812500 to -0.971438 , 4.000000 fs solid 0.3 noborder fc rgb "#79F3A1"
set object rectangle from -0.971437 , -3.812500 to -0.917469 , 4.000000 fs solid 0.3 noborder fc rgb "#79F3A1"
set object rectangle from -0.917469 , -3.796875 to -0.890484 , 4.000000 fs solid 0.3 noborder fc rgb "#79F3A1"
set object rectangle from -0.890484 , -3.812500 to -0.876992 , 4.000000 fs solid 0.3 noborder fc rgb "#79F3A1"
set object rectangle from -0.876992 , -3.812500 to -0.863500 , 3.984375 fs solid 0.3 noborder fc rgb "#79F3A1"
set object rectangle from -0.863500 , -3.796875 to -0.755563 , 3.968750 fs solid 0.3 noborder fc rgb "#79F3A1"
set object rectangle from -0.755562 , -3.796875 to -0.728578 , 3.968750 fs solid 0.3 noborder fc rgb "#79F3A1"
set object rectangle from -0.728578 , -3.796875 to -0.715086 , 3.953125 fs solid 0.3 noborder fc rgb "#79F3A1"
set object rectangle from -0.715086 , -3.781250 to -0.688102 , 3.937500 fs solid 0.3 noborder fc rgb "#79F3A1"
set object rectangle from -0.688102 , -3.781250 to -0.593656 , 3.921875 fs solid 0.3 noborder fc rgb "#79F3A1"
set object rectangle from -0.593656 , -3.796875 to -0.580164 , 3.921875 fs solid 0.3 noborder fc rgb "#79F3A1"
set object rectangle from -0.580164 , -3.781250 to -0.539688 , 3.921875 fs solid 0.3 noborder fc rgb "#79F3A1"
set object rectangle from -0.539687 , -3.796875 to -0.526195 , 3.906250 fs solid 0.3 noborder fc rgb "#79F3A1"
set object rectangle from -0.526195 , -3.781250 to -0.512703 , 3.906250 fs solid 0.3 noborder fc rgb "#79F3A1"
set object rectangle from -0.512703 , -3.781250 to -0.499211 , 3.890625 fs solid 0.3 noborder fc rgb "#79F3A1"
set object rectangle from -0.499211 , -3.781250 to -0.391273 , 3.875000 fs solid 0.3 noborder fc rgb "#79F3A1"
set object rectangle from -0.391273 , -3.796875 to -0.377781 , 3.875000 fs solid 0.3 noborder fc rgb "#79F3A1"
set object rectangle from -0.377781 , -3.781250 to -0.350797 , 3.875000 fs solid 0.3 noborder fc rgb "#79F3A1"
set object rectangle from -0.350797 , -3.781250 to -0.337305 , 3.859375 fs solid 0.3 noborder fc rgb "#79F3A1"
set object rectangle from -0.337305 , -3.781250 to -0.323813 , 3.843750 fs solid 0.3 noborder fc rgb "#79F3A1"
set object rectangle from -0.323812 , -3.781250 to -0.202383 , 3.843750 fs solid 0.3 noborder fc rgb "#79F3A1"
set object rectangle from -0.202383 , -3.796875 to -0.161906 , 3.843750 fs solid 0.3 noborder fc rgb "#79F3A1"
set object rectangle from -0.161906 , -3.796875 to -0.148414 , 3.828125 fs solid 0.3 noborder fc rgb "#79F3A1"
set object rectangle from -0.148414 , -3.796875 to -0.107938 , 3.812500 fs solid 0.3 noborder fc rgb "#79F3A1"
set object rectangle from -0.107937 , -3.796875 to -0.013492 , 3.812500 fs solid 0.3 noborder fc rgb "#79F3A1"
set object rectangle from -0.013492 , -3.812500 to 0.013492 , 3.812500 fs solid 0.3 noborder fc rgb "#79F3A1"
set object rectangle from 0.013492 , -3.812500 to 0.148414 , 3.796875 fs solid 0.3 noborder fc rgb "#79F3A1"
set object rectangle from 0.148414 , -3.828125 to 0.161906 , 3.796875 fs solid 0.3 noborder fc rgb "#79F3A1"
set object rectangle from 0.161906 , -3.843750 to 0.202383 , 3.796875 fs solid 0.3 noborder fc rgb "#79F3A1"
set object rectangle from 0.202383 , -3.843750 to 0.323813 , 3.781250 fs solid 0.3 noborder fc rgb "#79F3A1"
set object rectangle from 0.323812 , -3.843750 to 0.337305 , 3.781250 fs solid 0.3 noborder fc rgb "#79F3A1"
set object rectangle from 0.337305 , -3.859375 to 0.350797 , 3.781250 fs solid 0.3 noborder fc rgb "#79F3A1"
set object rectangle from 0.350797 , -3.875000 to 0.377781 , 3.781250 fs solid 0.3 noborder fc rgb "#79F3A1"
set object rectangle from 0.377781 , -3.875000 to 0.391273 , 3.796875 fs solid 0.3 noborder fc rgb "#79F3A1"
set object rectangle from 0.391273 , -3.875000 to 0.499211 , 3.781250 fs solid 0.3 noborder fc rgb "#79F3A1"
set object rectangle from 0.499211 , -3.890625 to 0.512703 , 3.781250 fs solid 0.3 noborder fc rgb "#79F3A1"
set object rectangle from 0.512703 , -3.906250 to 0.526195 , 3.781250 fs solid 0.3 noborder fc rgb "#79F3A1"
set object rectangle from 0.526195 , -3.906250 to 0.539688 , 3.796875 fs solid 0.3 noborder fc rgb "#79F3A1"
set object rectangle from 0.539687 , -3.921875 to 0.580164 , 3.781250 fs solid 0.3 noborder fc rgb "#79F3A1"
set object rectangle from 0.580164 , -3.921875 to 0.593656 , 3.796875 fs solid 0.3 noborder fc rgb "#79F3A1"
set object rectangle from 0.593656 , -3.921875 to 0.688102 , 3.781250 fs solid 0.3 noborder fc rgb "#79F3A1"
set object rectangle from 0.688102 , -3.937500 to 0.715086 , 3.781250 fs solid 0.3 noborder fc rgb "#79F3A1"
set object rectangle from 0.715086 , -3.953125 to 0.728578 , 3.796875 fs solid 0.3 noborder fc rgb "#79F3A1"
set object rectangle from 0.728578 , -3.968750 to 0.755562 , 3.796875 fs solid 0.3 noborder fc rgb "#79F3A1"
set object rectangle from 0.755563 , -3.968750 to 0.863500 , 3.796875 fs solid 0.3 noborder fc rgb "#79F3A1"
set object rectangle from 0.863500 , -3.984375 to 0.876992 , 3.812500 fs solid 0.3 noborder fc rgb "#79F3A1"
set object rectangle from 0.876992 , -4.000000 to 0.890484 , 3.812500 fs solid 0.3 noborder fc rgb "#79F3A1"
set object rectangle from 0.890484 , -4.000000 to 0.917469 , 3.796875 fs solid 0.3 noborder fc rgb "#79F3A1"
set object rectangle from 0.917469 , -4.000000 to 0.971438 , 3.812500 fs solid 0.3 noborder fc rgb "#79F3A1"
set object rectangle from 0.971437 , -4.000000 to 1.052391 , 3.812500 fs solid 0.3 noborder fc rgb "#79F3A1"
set object rectangle from 1.052391 , -4.000000 to 1.187312 , 3.828125 fs solid 0.3 noborder fc rgb "#79F3A1"
set object rectangle from 1.187313 , -4.000000 to 1.200805 , 3.828125 fs solid 0.3 noborder fc rgb "#79F3A1"
set object rectangle from 1.200805 , -4.000000 to 1.254773 , 3.843750 fs solid 0.3 noborder fc rgb "#79F3A1"
set object rectangle from 1.254773 , -4.000000 to 1.389695 , 3.859375 fs solid 0.3 noborder fc rgb "#79F3A1"
set object rectangle from 1.389695 , -4.000000 to 1.538109 , 3.875000 fs solid 0.3 noborder fc rgb "#79F3A1"
set object rectangle from 1.538109 , -4.000000 to 1.592078 , 3.890625 fs solid 0.3 noborder fc rgb "#79F3A1"
set object rectangle from 1.592078 , -4.000000 to 1.619062 , 3.906250 fs solid 0.3 noborder fc rgb "#79F3A1"
set object rectangle from 1.619063 , -4.000000 to 1.727000 , 3.906250 fs solid 0.3 noborder fc rgb "#79F3A1"
set object rectangle from 1.727000 , -4.000000 to 1.888906 , 3.921875 fs solid 0.3 noborder fc rgb "#79F3A1"
set object rectangle from 1.888906 , -4.000000 to 1.942875 , 3.937500 fs solid 0.3 noborder fc rgb "#79F3A1"
set object rectangle from 1.942875 , -4.000000 to 2.077797 , 3.953125 fs solid 0.3 noborder fc rgb "#79F3A1"
set object rectangle from 2.077797 , -4.000000 to 2.239703 , 3.968750 fs solid 0.3 noborder fc rgb "#79F3A1"
set object rectangle from 2.239703 , -4.000000 to 2.428594 , 3.984375 fs solid 0.3 noborder fc rgb "#79F3A1"
set object rectangle from 2.428594 , -4.000000 to 3.143680 , 4.000000 fs solid 0.3 noborder fc rgb "#79F3A1" 
plot -4.000000, 4.000000
