set terminal jpeg
set output "ctrl_reg.exists_strong_ctrl.gnuplot.jpg"
unset key
set xlabel "x_x1"
set xrange [-3.454000:3.454000]
set ylabel "x_x2"
set yrange [-4.000000:4.000000]
#set grid
set object rectangle from -3.143680 , -4.000000 to -2.590500 , 4.000000 fs solid 0.3 noborder fc rgb "#79F3A1"
set object rectangle from -2.590500 , -3.984375 to -2.415102 , 4.000000 fs solid 0.3 noborder fc rgb "#79F3A1"
set object rectangle from -2.415102 , -3.968750 to -2.199227 , 4.000000 fs solid 0.3 noborder fc rgb "#79F3A1"
set object rectangle from -2.199227 , -3.953125 to -2.185734 , 4.000000 fs solid 0.3 noborder fc rgb "#79F3A1"
set object rectangle from -2.185734 , -3.937500 to -2.023828 , 4.000000 fs solid 0.3 noborder fc rgb "#79F3A1"
set object rectangle from -2.023828 , -3.921875 to -1.821445 , 4.000000 fs solid 0.3 noborder fc rgb "#79F3A1"
set object rectangle from -1.821445 , -3.906250 to -1.807953 , 4.000000 fs solid 0.3 noborder fc rgb "#79F3A1"
set object rectangle from -1.807953 , -3.890625 to -1.767477 , 4.000000 fs solid 0.3 noborder fc rgb "#79F3A1"
set object rectangle from -1.767477 , -3.875000 to -1.646047 , 4.000000 fs solid 0.3 noborder fc rgb "#79F3A1"
set object rectangle from -1.646047 , -3.859375 to -1.443664 , 4.000000 fs solid 0.3 noborder fc rgb "#79F3A1"
set object rectangle from -1.443664 , -3.843750 to -1.430172 , 4.000000 fs solid 0.3 noborder fc rgb "#79F3A1"
set object rectangle from -1.430172 , -3.828125 to -1.389695 , 4.000000 fs solid 0.3 noborder fc rgb "#79F3A1"
set object rectangle from -1.389695 , -3.812500 to -1.362711 , 4.000000 fs solid 0.3 noborder fc rgb "#79F3A1"
set object rectangle from -1.362711 , -3.828125 to -1.268266 , 4.000000 fs solid 0.3 noborder fc rgb "#79F3A1"
set object rectangle from -1.268266 , -3.812500 to -1.187313 , 4.000000 fs solid 0.3 noborder fc rgb "#79F3A1"
set object rectangle from -1.187312 , -3.812500 to -1.065883 , 4.000000 fs solid 0.3 noborder fc rgb "#79F3A1"
set object rectangle from -1.065883 , -3.796875 to -1.052391 , 4.000000 fs solid 0.3 noborder fc rgb "#79F3A1"
set object rectangle from -1.052391 , -3.781250 to -1.011914 , 4.000000 fs solid 0.3 noborder fc rgb "#79F3A1"
set object rectangle from -1.011914 , -3.765625 to -0.971438 , 4.000000 fs solid 0.3 noborder fc rgb "#79F3A1"
set object rectangle from -0.971437 , -3.781250 to -0.944453 , 4.000000 fs solid 0.3 noborder fc rgb "#79F3A1"
set object rectangle from -0.944453 , -3.796875 to -0.890484 , 4.000000 fs solid 0.3 noborder fc rgb "#79F3A1"
set object rectangle from -0.890484 , -3.781250 to -0.755563 , 4.000000 fs solid 0.3 noborder fc rgb "#79F3A1"
set object rectangle from -0.755562 , -3.781250 to -0.715086 , 4.000000 fs solid 0.3 noborder fc rgb "#79F3A1"
set object rectangle from -0.715086 , -3.796875 to -0.688102 , 4.000000 fs solid 0.3 noborder fc rgb "#79F3A1"
set object rectangle from -0.688102 , -3.765625 to -0.647625 , 3.984375 fs solid 0.3 noborder fc rgb "#79F3A1"
set object rectangle from -0.647625 , -3.750000 to -0.634133 , 3.984375 fs solid 0.3 noborder fc rgb "#79F3A1"
set object rectangle from -0.634133 , -3.750000 to -0.593656 , 3.953125 fs solid 0.3 noborder fc rgb "#79F3A1"
set object rectangle from -0.593656 , -3.765625 to -0.553180 , 3.921875 fs solid 0.3 noborder fc rgb "#79F3A1"
set object rectangle from -0.553180 , -3.796875 to -0.539688 , 3.921875 fs solid 0.3 noborder fc rgb "#79F3A1"
set object rectangle from -0.539687 , -3.796875 to -0.512703 , 3.921875 fs solid 0.3 noborder fc rgb "#79F3A1"
set object rectangle from -0.512703 , -3.781250 to -0.472227 , 3.906250 fs solid 0.3 noborder fc rgb "#79F3A1"
set object rectangle from -0.472227 , -3.781250 to -0.418258 , 3.921875 fs solid 0.3 noborder fc rgb "#79F3A1"
set object rectangle from -0.418258 , -3.781250 to -0.377781 , 3.906250 fs solid 0.3 noborder fc rgb "#79F3A1"
set object rectangle from -0.377781 , -3.796875 to -0.364289 , 3.906250 fs solid 0.3 noborder fc rgb "#79F3A1"
set object rectangle from -0.364289 , -3.796875 to -0.323813 , 3.890625 fs solid 0.3 noborder fc rgb "#79F3A1"
set object rectangle from -0.323812 , -3.812500 to -0.310320 , 3.890625 fs solid 0.3 noborder fc rgb "#79F3A1"
set object rectangle from -0.310320 , -3.781250 to -0.283336 , 3.890625 fs solid 0.3 noborder fc rgb "#79F3A1"
set object rectangle from -0.283336 , -3.765625 to -0.242859 , 3.875000 fs solid 0.3 noborder fc rgb "#79F3A1"
set object rectangle from -0.242859 , -3.765625 to -0.229367 , 3.890625 fs solid 0.3 noborder fc rgb "#79F3A1"
set object rectangle from -0.229367 , -3.765625 to -0.202383 , 3.859375 fs solid 0.3 noborder fc rgb "#79F3A1"
set object rectangle from -0.202383 , -3.796875 to -0.188891 , 3.859375 fs solid 0.3 noborder fc rgb "#79F3A1"
set object rectangle from -0.188891 , -3.796875 to -0.161906 , 3.828125 fs solid 0.3 noborder fc rgb "#79F3A1"
set object rectangle from -0.161906 , -3.828125 to -0.134922 , 3.828125 fs solid 0.3 noborder fc rgb "#79F3A1"
set object rectangle from -0.134922 , -3.812500 to -0.107938 , 3.828125 fs solid 0.3 noborder fc rgb "#79F3A1"
set object rectangle from -0.107937 , -3.812500 to -0.094445 , 3.812500 fs solid 0.3 noborder fc rgb "#79F3A1"
set object rectangle from -0.094445 , -3.812500 to -0.067461 , 3.828125 fs solid 0.3 noborder fc rgb "#79F3A1"
set object rectangle from -0.067461 , -3.812500 to -0.026984 , 3.843750 fs solid 0.3 noborder fc rgb "#79F3A1"
set object rectangle from -0.026984 , -3.828125 to -0.013492 , 3.843750 fs solid 0.3 noborder fc rgb "#79F3A1"
set object rectangle from -0.013492 , -3.828125 to 0.013492 , 3.828125 fs solid 0.3 noborder fc rgb "#79F3A1"
set object rectangle from 0.013492 , -3.843750 to 0.026984 , 3.828125 fs solid 0.3 noborder fc rgb "#79F3A1"
set object rectangle from 0.026984 , -3.843750 to 0.067461 , 3.812500 fs solid 0.3 noborder fc rgb "#79F3A1"
set object rectangle from 0.067461 , -3.828125 to 0.094445 , 3.812500 fs solid 0.3 noborder fc rgb "#79F3A1"
set object rectangle from 0.094445 , -3.812500 to 0.107937 , 3.812500 fs solid 0.3 noborder fc rgb "#79F3A1"
set object rectangle from 0.107937 , -3.828125 to 0.134922 , 3.812500 fs solid 0.3 noborder fc rgb "#79F3A1"
set object rectangle from 0.134922 , -3.828125 to 0.161906 , 3.828125 fs solid 0.3 noborder fc rgb "#79F3A1"
set object rectangle from 0.161906 , -3.828125 to 0.188891 , 3.796875 fs solid 0.3 noborder fc rgb "#79F3A1"
set object rectangle from 0.188891 , -3.859375 to 0.202383 , 3.796875 fs solid 0.3 noborder fc rgb "#79F3A1"
set object rectangle from 0.202383 , -3.859375 to 0.229367 , 3.765625 fs solid 0.3 noborder fc rgb "#79F3A1"
set object rectangle from 0.229367 , -3.890625 to 0.242859 , 3.765625 fs solid 0.3 noborder fc rgb "#79F3A1"
set object rectangle from 0.242859 , -3.875000 to 0.283336 , 3.765625 fs solid 0.3 noborder fc rgb "#79F3A1"
set object rectangle from 0.283336 , -3.890625 to 0.310320 , 3.781250 fs solid 0.3 noborder fc rgb "#79F3A1"
set object rectangle from 0.310320 , -3.890625 to 0.323813 , 3.812500 fs solid 0.3 noborder fc rgb "#79F3A1"
set object rectangle from 0.323812 , -3.890625 to 0.364289 , 3.796875 fs solid 0.3 noborder fc rgb "#79F3A1"
set object rectangle from 0.364289 , -3.906250 to 0.377781 , 3.796875 fs solid 0.3 noborder fc rgb "#79F3A1"
set object rectangle from 0.377781 , -3.906250 to 0.418258 , 3.781250 fs solid 0.3 noborder fc rgb "#79F3A1"
set object rectangle from 0.418258 , -3.921875 to 0.472227 , 3.781250 fs solid 0.3 noborder fc rgb "#79F3A1"
set object rectangle from 0.472227 , -3.906250 to 0.512703 , 3.781250 fs solid 0.3 noborder fc rgb "#79F3A1"
set object rectangle from 0.512703 , -3.921875 to 0.539688 , 3.796875 fs solid 0.3 noborder fc rgb "#79F3A1"
set object rectangle from 0.539687 , -3.921875 to 0.553180 , 3.796875 fs solid 0.3 noborder fc rgb "#79F3A1"
set object rectangle from 0.553180 , -3.921875 to 0.593656 , 3.765625 fs solid 0.3 noborder fc rgb "#79F3A1"
set object rectangle from 0.593656 , -3.953125 to 0.634133 , 3.750000 fs solid 0.3 noborder fc rgb "#79F3A1"
set object rectangle from 0.634133 , -3.984375 to 0.647625 , 3.750000 fs solid 0.3 noborder fc rgb "#79F3A1"
set object rectangle from 0.647625 , -3.984375 to 0.688102 , 3.765625 fs solid 0.3 noborder fc rgb "#79F3A1"
set object rectangle from 0.688102 , -4.000000 to 0.715086 , 3.796875 fs solid 0.3 noborder fc rgb "#79F3A1"
set object rectangle from 0.715086 , -4.000000 to 0.755562 , 3.781250 fs solid 0.3 noborder fc rgb "#79F3A1"
set object rectangle from 0.755563 , -4.000000 to 0.890484 , 3.781250 fs solid 0.3 noborder fc rgb "#79F3A1"
set object rectangle from 0.890484 , -4.000000 to 0.944453 , 3.796875 fs solid 0.3 noborder fc rgb "#79F3A1"
set object rectangle from 0.944453 , -4.000000 to 0.971438 , 3.781250 fs solid 0.3 noborder fc rgb "#79F3A1"
set object rectangle from 0.971437 , -4.000000 to 1.011914 , 3.765625 fs solid 0.3 noborder fc rgb "#79F3A1"
set object rectangle from 1.011914 , -4.000000 to 1.052391 , 3.781250 fs solid 0.3 noborder fc rgb "#79F3A1"
set object rectangle from 1.052391 , -4.000000 to 1.065883 , 3.796875 fs solid 0.3 noborder fc rgb "#79F3A1"
set object rectangle from 1.065883 , -4.000000 to 1.187312 , 3.812500 fs solid 0.3 noborder fc rgb "#79F3A1"
set object rectangle from 1.187313 , -4.000000 to 1.268266 , 3.812500 fs solid 0.3 noborder fc rgb "#79F3A1"
set object rectangle from 1.268266 , -4.000000 to 1.362711 , 3.828125 fs solid 0.3 noborder fc rgb "#79F3A1"
set object rectangle from 1.362711 , -4.000000 to 1.389695 , 3.812500 fs solid 0.3 noborder fc rgb "#79F3A1"
set object rectangle from 1.389695 , -4.000000 to 1.430172 , 3.828125 fs solid 0.3 noborder fc rgb "#79F3A1"
set object rectangle from 1.430172 , -4.000000 to 1.443664 , 3.843750 fs solid 0.3 noborder fc rgb "#79F3A1"
set object rectangle from 1.443664 , -4.000000 to 1.619062 , 3.859375 fs solid 0.3 noborder fc rgb "#79F3A1"
set object rectangle from 1.619063 , -4.000000 to 1.646047 , 3.859375 fs solid 0.3 noborder fc rgb "#79F3A1"
set object rectangle from 1.646047 , -4.000000 to 1.767477 , 3.875000 fs solid 0.3 noborder fc rgb "#79F3A1"
set object rectangle from 1.767477 , -4.000000 to 1.807953 , 3.890625 fs solid 0.3 noborder fc rgb "#79F3A1"
set object rectangle from 1.807953 , -4.000000 to 1.821445 , 3.906250 fs solid 0.3 noborder fc rgb "#79F3A1"
set object rectangle from 1.821445 , -4.000000 to 2.023828 , 3.921875 fs solid 0.3 noborder fc rgb "#79F3A1"
set object rectangle from 2.023828 , -4.000000 to 2.185734 , 3.937500 fs solid 0.3 noborder fc rgb "#79F3A1"
set object rectangle from 2.185734 , -4.000000 to 2.199227 , 3.953125 fs solid 0.3 noborder fc rgb "#79F3A1"
set object rectangle from 2.199227 , -4.000000 to 2.415102 , 3.968750 fs solid 0.3 noborder fc rgb "#79F3A1"
set object rectangle from 2.415102 , -4.000000 to 2.590500 , 3.984375 fs solid 0.3 noborder fc rgb "#79F3A1"
set object rectangle from 2.590500 , -4.000000 to 3.143680 , 4.000000 fs solid 0.3 noborder fc rgb "#79F3A1" 
plot -4.000000, 4.000000
